181204-23:54:24 [INFO] -- 
181204-23:54:24 [INFO] -- 
181204-23:54:24 [INFO] -- ============================================================
181204-23:54:24 [INFO] -- AppKickstarter: Application Starting...
181204-23:54:24 [INFO] -- A: starting...
181204-23:54:24 [INFO] -- elevatorMsgReceiverA: starting...
181204-23:54:24 [INFO] -- B: starting...
181204-23:54:24 [INFO] -- elevatorMsgReceiverB: starting...
181204-23:54:24 [INFO] -- C: starting...
181204-23:54:24 [INFO] -- elevatorMsgReceiverC: starting...
181204-23:54:24 [INFO] -- D: starting...
181204-23:54:24 [INFO] -- elevatorMsgReceiverD: starting...
181204-23:54:24 [INFO] -- E: starting...
181204-23:54:24 [INFO] -- elevatorMsgReceiverE: starting...
181204-23:54:24 [INFO] -- F: starting...
181204-23:54:24 [INFO] -- elevatorMsgReceiverF: starting...
181204-23:54:24 [INFO] -- ServerThread: Listening...
181204-23:54:24 [INFO] -- timer: starting...
181204-23:54:24 [INFO] -- EControlThread: starting...
181204-23:54:28 [INFO] -- EControlThread: message received: [A (ShowStatus) -- A idle 0 S [-2147483648]].
181204-23:54:28 [INFO] -- A: A idle 0 S [-2147483648]
181204-23:54:28 [INFO] -- EControlThread: message received: [B (ShowStatus) -- B idle 0 S [-2147483648]].
181204-23:54:28 [INFO] -- B: B idle 0 S [-2147483648]
181204-23:54:28 [INFO] -- EControlThread: message received: [C (ShowStatus) -- C idle 0 S [-2147483648]].
181204-23:54:28 [INFO] -- C: C idle 0 S [-2147483648]
181204-23:54:28 [INFO] -- EControlThread: message received: [D (ShowStatus) -- D idle 0 S [-2147483648]].
181204-23:54:28 [INFO] -- D: D idle 0 S [-2147483648]
181204-23:54:28 [INFO] -- EControlThread: message received: [E (ShowStatus) -- E idle 0 S [-2147483648]].
181204-23:54:28 [INFO] -- E: E idle 0 S [-2147483648]
181204-23:54:28 [INFO] -- EControlThread: message received: [F (ShowStatus) -- F idle 0 S [-2147483648]].
181204-23:54:28 [INFO] -- F: F idle 0 S [-2147483648]
