181203-17:04:28 [INFO] -- 
181203-17:04:28 [INFO] -- 
181203-17:04:28 [INFO] -- ============================================================
181203-17:04:28 [INFO] -- AppKickstarter: Application Starting...
