181203-16:49:50 [INFO] -- 
181203-16:49:50 [INFO] -- 
181203-16:49:50 [INFO] -- ============================================================
181203-16:49:50 [INFO] -- AppKickstarter: Application Starting...
181203-16:49:50 [INFO] -- A: starting...
181203-16:49:50 [INFO] -- elevatorMsgReceiverB: starting...
181203-16:49:50 [INFO] -- elevatorMsgReceiverA: starting...
181203-16:49:50 [INFO] -- B: starting...
181203-16:49:50 [INFO] -- timer: starting...
181203-16:49:50 [INFO] -- ServerThread: Listening...
181203-16:49:50 [INFO] -- EControlThread: starting...
181203-16:49:50 [INFO] -- EControlThread: message received: [A (ShowStatus) -- A close -1 S []].
181203-16:49:50 [INFO] -- A: A close -1 S []
181203-16:49:50 [INFO] -- EControlThread: message received: [B (ShowStatus) -- B close -1 S []].
181203-16:49:50 [INFO] -- B: B close -1 S []
181203-16:49:50 [INFO] -- EControlThread: message received: [A (ShowStatus) -- A close -1 S []].
181203-16:49:50 [INFO] -- ServerThread: terminating...
181203-16:49:50 [INFO] -- A: A close -1 S []
181203-16:49:50 [INFO] -- EControlThread: message received: [B (ShowStatus) -- B close -1 S []].
181203-16:49:50 [INFO] -- B: B close -1 S []
181203-16:49:51 [INFO] -- EControlThread: message received: [Timer (TimesUp) -- [49143]: Time's up!].
181203-16:49:51 [INFO] -- EControlThread: receiving timesup at 00:00:05
181203-16:49:51 [INFO] -- EControlThread: say hello to Thread B...
181203-16:49:56 [INFO] -- EControlThread: message received: [B (ShowStatus) -- B close -1 S []].
181203-16:49:56 [INFO] -- B: B close -1 S []
181203-16:49:56 [INFO] -- EControlThread: message received: [A (ShowStatus) -- A close -1 S []].
181203-16:49:56 [INFO] -- A: A close -1 S []
181203-16:49:56 [INFO] -- EControlThread: message received: [B (ShowStatus) -- B close -1 S []].
181203-16:49:56 [INFO] -- B: B close -1 S []
181203-16:49:56 [INFO] -- EControlThread: message received: [A (ShowStatus) -- A close -1 S []].
181203-16:49:56 [INFO] -- A: A close -1 S []
181203-16:50:02 [INFO] -- EControlThread: message received: [A (ShowStatus) -- A close -1 S []].
181203-16:50:02 [INFO] -- A: A close -1 S []
181203-16:50:02 [INFO] -- EControlThread: message received: [A (ShowStatus) -- A close -1 S []].
181203-16:50:02 [INFO] -- A: A close -1 S []
181203-16:50:02 [INFO] -- EControlThread: message received: [B (ShowStatus) -- B close -1 S []].
181203-16:50:02 [INFO] -- B: B close -1 S []
181203-16:50:02 [INFO] -- EControlThread: message received: [B (ShowStatus) -- B close -1 S []].
181203-16:50:02 [INFO] -- B: B close -1 S []
181203-16:50:08 [INFO] -- EControlThread: message received: [B (ShowStatus) -- B close -1 S []].
181203-16:50:08 [INFO] -- B: B close -1 S []
181203-16:50:08 [INFO] -- EControlThread: message received: [B (ShowStatus) -- B close -1 S []].
181203-16:50:08 [INFO] -- B: B close -1 S []
181203-16:50:08 [INFO] -- EControlThread: message received: [A (ShowStatus) -- A close -1 S []].
181203-16:50:08 [INFO] -- A: A close -1 S []
181203-16:50:08 [INFO] -- EControlThread: message received: [A (ShowStatus) -- A close -1 S []].
181203-16:50:08 [INFO] -- A: A close -1 S []
181203-16:50:14 [INFO] -- EControlThread: message received: [B (ShowStatus) -- B close -1 S []].
181203-16:50:14 [INFO] -- B: B close -1 S []
181203-16:50:14 [INFO] -- EControlThread: message received: [B (ShowStatus) -- B close -1 S []].
181203-16:50:14 [INFO] -- B: B close -1 S []
181203-16:50:14 [INFO] -- EControlThread: message received: [A (ShowStatus) -- A close -1 S []].
181203-16:50:14 [INFO] -- A: A close -1 S []
181203-16:50:14 [INFO] -- EControlThread: message received: [A (ShowStatus) -- A close -1 S []].
181203-16:50:14 [INFO] -- A: A close -1 S []
181203-16:50:20 [INFO] -- EControlThread: message received: [B (ShowStatus) -- B close -1 S []].
181203-16:50:20 [INFO] -- B: B close -1 S []
181203-16:50:20 [INFO] -- EControlThread: message received: [B (ShowStatus) -- B close -1 S []].
181203-16:50:20 [INFO] -- B: B close -1 S []
181203-16:50:20 [INFO] -- EControlThread: message received: [A (ShowStatus) -- A close -1 S []].
181203-16:50:20 [INFO] -- A: A close -1 S []
181203-16:50:20 [INFO] -- EControlThread: message received: [A (ShowStatus) -- A close -1 S []].
181203-16:50:20 [INFO] -- A: A close -1 S []
181203-16:50:26 [INFO] -- EControlThread: message received: [B (ShowStatus) -- B close -1 S []].
181203-16:50:26 [INFO] -- B: B close -1 S []
181203-16:50:26 [INFO] -- EControlThread: message received: [B (ShowStatus) -- B close -1 S []].
181203-16:50:26 [INFO] -- B: B close -1 S []
181203-16:50:26 [INFO] -- EControlThread: message received: [A (ShowStatus) -- A close -1 S []].
181203-16:50:26 [INFO] -- A: A close -1 S []
181203-16:50:26 [INFO] -- EControlThread: message received: [A (ShowStatus) -- A close -1 S []].
181203-16:50:26 [INFO] -- A: A close -1 S []
181203-16:50:32 [INFO] -- EControlThread: message received: [B (ShowStatus) -- B close -1 S []].
181203-16:50:32 [INFO] -- B: B close -1 S []
181203-16:50:32 [INFO] -- EControlThread: message received: [B (ShowStatus) -- B close -1 S []].
181203-16:50:32 [INFO] -- B: B close -1 S []
181203-16:50:32 [INFO] -- EControlThread: message received: [A (ShowStatus) -- A close -1 S []].
181203-16:50:32 [INFO] -- A: A close -1 S []
181203-16:50:32 [INFO] -- EControlThread: message received: [A (ShowStatus) -- A close -1 S []].
181203-16:50:32 [INFO] -- A: A close -1 S []
181203-16:50:38 [INFO] -- EControlThread: message received: [B (ShowStatus) -- B close -1 S []].
181203-16:50:38 [INFO] -- B: B close -1 S []
181203-16:50:38 [INFO] -- EControlThread: message received: [B (ShowStatus) -- B close -1 S []].
181203-16:50:38 [INFO] -- B: B close -1 S []
181203-16:50:38 [INFO] -- EControlThread: message received: [A (ShowStatus) -- A close -1 S []].
181203-16:50:38 [INFO] -- A: A close -1 S []
181203-16:50:38 [INFO] -- EControlThread: message received: [A (ShowStatus) -- A close -1 S []].
181203-16:50:38 [INFO] -- A: A close -1 S []
181203-16:50:44 [INFO] -- EControlThread: message received: [B (ShowStatus) -- B close -1 S []].
181203-16:50:44 [INFO] -- B: B close -1 S []
181203-16:50:44 [INFO] -- EControlThread: message received: [B (ShowStatus) -- B close -1 S []].
181203-16:50:44 [INFO] -- B: B close -1 S []
181203-16:50:44 [INFO] -- EControlThread: message received: [A (ShowStatus) -- A close -1 S []].
181203-16:50:44 [INFO] -- A: A close -1 S []
181203-16:50:44 [INFO] -- EControlThread: message received: [A (ShowStatus) -- A close -1 S []].
181203-16:50:44 [INFO] -- A: A close -1 S []
181203-16:50:50 [INFO] -- EControlThread: message received: [B (ShowStatus) -- B close -1 S []].
181203-16:50:50 [INFO] -- B: B close -1 S []
181203-16:50:50 [INFO] -- EControlThread: message received: [B (ShowStatus) -- B close -1 S []].
181203-16:50:50 [INFO] -- B: B close -1 S []
181203-16:50:50 [INFO] -- EControlThread: message received: [A (ShowStatus) -- A close -1 S []].
181203-16:50:50 [INFO] -- A: A close -1 S []
181203-16:50:50 [INFO] -- EControlThread: message received: [A (ShowStatus) -- A close -1 S []].
181203-16:50:50 [INFO] -- A: A close -1 S []
181203-16:50:56 [INFO] -- EControlThread: message received: [B (ShowStatus) -- B close -1 S []].
181203-16:50:56 [INFO] -- B: B close -1 S []
181203-16:50:56 [INFO] -- EControlThread: message received: [B (ShowStatus) -- B close -1 S []].
181203-16:50:56 [INFO] -- B: B close -1 S []
181203-16:50:56 [INFO] -- EControlThread: message received: [A (ShowStatus) -- A close -1 S []].
181203-16:50:56 [INFO] -- A: A close -1 S []
181203-16:50:56 [INFO] -- EControlThread: message received: [A (ShowStatus) -- A close -1 S []].
181203-16:50:56 [INFO] -- A: A close -1 S []
181203-16:51:02 [INFO] -- EControlThread: message received: [B (ShowStatus) -- B close -1 S []].
181203-16:51:02 [INFO] -- B: B close -1 S []
181203-16:51:02 [INFO] -- EControlThread: message received: [B (ShowStatus) -- B close -1 S []].
181203-16:51:02 [INFO] -- B: B close -1 S []
181203-16:51:02 [INFO] -- EControlThread: message received: [A (ShowStatus) -- A close -1 S []].
181203-16:51:02 [INFO] -- A: A close -1 S []
181203-16:51:02 [INFO] -- EControlThread: message received: [A (ShowStatus) -- A close -1 S []].
181203-16:51:02 [INFO] -- A: A close -1 S []
181203-16:51:08 [INFO] -- EControlThread: message received: [B (ShowStatus) -- B close -1 S []].
181203-16:51:08 [INFO] -- B: B close -1 S []
181203-16:51:08 [INFO] -- EControlThread: message received: [B (ShowStatus) -- B close -1 S []].
181203-16:51:08 [INFO] -- B: B close -1 S []
181203-16:51:08 [INFO] -- EControlThread: message received: [A (ShowStatus) -- A close -1 S []].
181203-16:51:08 [INFO] -- A: A close -1 S []
181203-16:51:08 [INFO] -- EControlThread: message received: [A (ShowStatus) -- A close -1 S []].
181203-16:51:08 [INFO] -- A: A close -1 S []
181203-16:51:14 [INFO] -- EControlThread: message received: [B (ShowStatus) -- B close -1 S []].
181203-16:51:14 [INFO] -- B: B close -1 S []
181203-16:51:14 [INFO] -- EControlThread: message received: [B (ShowStatus) -- B close -1 S []].
181203-16:51:14 [INFO] -- B: B close -1 S []
181203-16:51:14 [INFO] -- EControlThread: message received: [A (ShowStatus) -- A close -1 S []].
181203-16:51:14 [INFO] -- A: A close -1 S []
181203-16:51:14 [INFO] -- EControlThread: message received: [A (ShowStatus) -- A close -1 S []].
181203-16:51:14 [INFO] -- A: A close -1 S []
181203-16:51:20 [INFO] -- EControlThread: message received: [B (ShowStatus) -- B close -1 S []].
181203-16:51:20 [INFO] -- B: B close -1 S []
181203-16:51:20 [INFO] -- EControlThread: message received: [B (ShowStatus) -- B close -1 S []].
181203-16:51:20 [INFO] -- B: B close -1 S []
181203-16:51:20 [INFO] -- EControlThread: message received: [A (ShowStatus) -- A close -1 S []].
181203-16:51:20 [INFO] -- A: A close -1 S []
181203-16:51:20 [INFO] -- EControlThread: message received: [A (ShowStatus) -- A close -1 S []].
181203-16:51:20 [INFO] -- A: A close -1 S []
181203-16:51:26 [INFO] -- EControlThread: message received: [B (ShowStatus) -- B close -1 S []].
181203-16:51:26 [INFO] -- B: B close -1 S []
181203-16:51:26 [INFO] -- EControlThread: message received: [B (ShowStatus) -- B close -1 S []].
181203-16:51:26 [INFO] -- B: B close -1 S []
181203-16:51:26 [INFO] -- EControlThread: message received: [A (ShowStatus) -- A close -1 S []].
181203-16:51:26 [INFO] -- A: A close -1 S []
181203-16:51:26 [INFO] -- EControlThread: message received: [A (ShowStatus) -- A close -1 S []].
181203-16:51:26 [INFO] -- A: A close -1 S []
181203-16:51:32 [INFO] -- EControlThread: message received: [B (ShowStatus) -- B close -1 S []].
181203-16:51:32 [INFO] -- B: B close -1 S []
181203-16:51:32 [INFO] -- EControlThread: message received: [B (ShowStatus) -- B close -1 S []].
181203-16:51:32 [INFO] -- B: B close -1 S []
181203-16:51:32 [INFO] -- EControlThread: message received: [A (ShowStatus) -- A close -1 S []].
181203-16:51:32 [INFO] -- A: A close -1 S []
181203-16:51:32 [INFO] -- EControlThread: message received: [A (ShowStatus) -- A close -1 S []].
181203-16:51:32 [INFO] -- A: A close -1 S []
181203-16:51:38 [INFO] -- EControlThread: message received: [B (ShowStatus) -- B close -1 S []].
181203-16:51:38 [INFO] -- B: B close -1 S []
181203-16:51:38 [INFO] -- EControlThread: message received: [B (ShowStatus) -- B close -1 S []].
181203-16:51:38 [INFO] -- B: B close -1 S []
181203-16:51:38 [INFO] -- EControlThread: message received: [A (ShowStatus) -- A close -1 S []].
181203-16:51:38 [INFO] -- A: A close -1 S []
181203-16:51:38 [INFO] -- EControlThread: message received: [A (ShowStatus) -- A close -1 S []].
181203-16:51:38 [INFO] -- A: A close -1 S []
181203-16:51:44 [INFO] -- EControlThread: message received: [B (ShowStatus) -- B close -1 S []].
181203-16:51:44 [INFO] -- B: B close -1 S []
181203-16:51:44 [INFO] -- EControlThread: message received: [B (ShowStatus) -- B close -1 S []].
181203-16:51:44 [INFO] -- B: B close -1 S []
181203-16:51:44 [INFO] -- EControlThread: message received: [A (ShowStatus) -- A close -1 S []].
181203-16:51:44 [INFO] -- A: A close -1 S []
181203-16:51:44 [INFO] -- EControlThread: message received: [A (ShowStatus) -- A close -1 S []].
181203-16:51:44 [INFO] -- A: A close -1 S []
181203-16:51:50 [INFO] -- EControlThread: message received: [B (ShowStatus) -- B close -1 S []].
181203-16:51:50 [INFO] -- B: B close -1 S []
181203-16:51:50 [INFO] -- EControlThread: message received: [B (ShowStatus) -- B close -1 S []].
181203-16:51:50 [INFO] -- B: B close -1 S []
181203-16:51:50 [INFO] -- EControlThread: message received: [A (ShowStatus) -- A close -1 S []].
181203-16:51:50 [INFO] -- A: A close -1 S []
181203-16:51:50 [INFO] -- EControlThread: message received: [A (ShowStatus) -- A close -1 S []].
181203-16:51:50 [INFO] -- A: A close -1 S []
181203-16:51:56 [INFO] -- EControlThread: message received: [B (ShowStatus) -- B close -1 S []].
181203-16:51:56 [INFO] -- B: B close -1 S []
181203-16:51:56 [INFO] -- EControlThread: message received: [B (ShowStatus) -- B close -1 S []].
181203-16:51:56 [INFO] -- B: B close -1 S []
181203-16:51:56 [INFO] -- EControlThread: message received: [A (ShowStatus) -- A close -1 S []].
181203-16:51:56 [INFO] -- A: A close -1 S []
181203-16:51:56 [INFO] -- EControlThread: message received: [A (ShowStatus) -- A close -1 S []].
181203-16:51:56 [INFO] -- A: A close -1 S []
181203-16:52:02 [INFO] -- EControlThread: message received: [B (ShowStatus) -- B close -1 S []].
181203-16:52:02 [INFO] -- B: B close -1 S []
181203-16:52:02 [INFO] -- EControlThread: message received: [B (ShowStatus) -- B close -1 S []].
181203-16:52:02 [INFO] -- B: B close -1 S []
181203-16:52:02 [INFO] -- EControlThread: message received: [A (ShowStatus) -- A close -1 S []].
181203-16:52:02 [INFO] -- A: A close -1 S []
181203-16:52:02 [INFO] -- EControlThread: message received: [A (ShowStatus) -- A close -1 S []].
181203-16:52:02 [INFO] -- A: A close -1 S []
181203-16:52:08 [INFO] -- EControlThread: message received: [B (ShowStatus) -- B close -1 S []].
181203-16:52:08 [INFO] -- B: B close -1 S []
181203-16:52:08 [INFO] -- EControlThread: message received: [B (ShowStatus) -- B close -1 S []].
181203-16:52:08 [INFO] -- B: B close -1 S []
181203-16:52:08 [INFO] -- EControlThread: message received: [A (ShowStatus) -- A close -1 S []].
181203-16:52:08 [INFO] -- A: A close -1 S []
181203-16:52:08 [INFO] -- EControlThread: message received: [A (ShowStatus) -- A close -1 S []].
181203-16:52:08 [INFO] -- A: A close -1 S []
181203-16:52:14 [INFO] -- EControlThread: message received: [B (ShowStatus) -- B close -1 S []].
181203-16:52:14 [INFO] -- B: B close -1 S []
181203-16:52:14 [INFO] -- EControlThread: message received: [B (ShowStatus) -- B close -1 S []].
181203-16:52:14 [INFO] -- B: B close -1 S []
181203-16:52:14 [INFO] -- EControlThread: message received: [A (ShowStatus) -- A close -1 S []].
181203-16:52:14 [INFO] -- A: A close -1 S []
181203-16:52:14 [INFO] -- EControlThread: message received: [A (ShowStatus) -- A close -1 S []].
181203-16:52:14 [INFO] -- A: A close -1 S []
181203-16:52:20 [INFO] -- EControlThread: message received: [B (ShowStatus) -- B close -1 S []].
181203-16:52:20 [INFO] -- B: B close -1 S []
181203-16:52:20 [INFO] -- EControlThread: message received: [B (ShowStatus) -- B close -1 S []].
181203-16:52:20 [INFO] -- B: B close -1 S []
181203-16:52:20 [INFO] -- EControlThread: message received: [A (ShowStatus) -- A close -1 S []].
181203-16:52:20 [INFO] -- A: A close -1 S []
181203-16:52:20 [INFO] -- EControlThread: message received: [A (ShowStatus) -- A close -1 S []].
181203-16:52:20 [INFO] -- A: A close -1 S []
181203-16:52:26 [INFO] -- EControlThread: message received: [B (ShowStatus) -- B close -1 S []].
181203-16:52:26 [INFO] -- B: B close -1 S []
181203-16:52:26 [INFO] -- EControlThread: message received: [B (ShowStatus) -- B close -1 S []].
181203-16:52:26 [INFO] -- B: B close -1 S []
181203-16:52:26 [INFO] -- EControlThread: message received: [A (ShowStatus) -- A close -1 S []].
181203-16:52:26 [INFO] -- A: A close -1 S []
181203-16:52:26 [INFO] -- EControlThread: message received: [A (ShowStatus) -- A close -1 S []].
181203-16:52:26 [INFO] -- A: A close -1 S []
181203-16:52:32 [INFO] -- EControlThread: message received: [B (ShowStatus) -- B close -1 S []].
181203-16:52:32 [INFO] -- B: B close -1 S []
181203-16:52:32 [INFO] -- EControlThread: message received: [B (ShowStatus) -- B close -1 S []].
181203-16:52:32 [INFO] -- B: B close -1 S []
181203-16:52:32 [INFO] -- EControlThread: message received: [A (ShowStatus) -- A close -1 S []].
181203-16:52:32 [INFO] -- A: A close -1 S []
181203-16:52:32 [INFO] -- EControlThread: message received: [A (ShowStatus) -- A close -1 S []].
181203-16:52:32 [INFO] -- A: A close -1 S []
181203-16:52:38 [INFO] -- EControlThread: message received: [B (ShowStatus) -- B close -1 S []].
181203-16:52:38 [INFO] -- B: B close -1 S []
181203-16:52:38 [INFO] -- EControlThread: message received: [B (ShowStatus) -- B close -1 S []].
181203-16:52:38 [INFO] -- B: B close -1 S []
181203-16:52:38 [INFO] -- EControlThread: message received: [A (ShowStatus) -- A close -1 S []].
181203-16:52:38 [INFO] -- A: A close -1 S []
181203-16:52:38 [INFO] -- EControlThread: message received: [A (ShowStatus) -- A close -1 S []].
181203-16:52:38 [INFO] -- A: A close -1 S []
181203-16:52:44 [INFO] -- EControlThread: message received: [B (ShowStatus) -- B close -1 S []].
181203-16:52:44 [INFO] -- B: B close -1 S []
181203-16:52:44 [INFO] -- EControlThread: message received: [B (ShowStatus) -- B close -1 S []].
181203-16:52:44 [INFO] -- B: B close -1 S []
181203-16:52:44 [INFO] -- EControlThread: message received: [A (ShowStatus) -- A close -1 S []].
181203-16:52:44 [INFO] -- A: A close -1 S []
181203-16:52:44 [INFO] -- EControlThread: message received: [A (ShowStatus) -- A close -1 S []].
181203-16:52:44 [INFO] -- A: A close -1 S []
181203-16:52:50 [INFO] -- EControlThread: message received: [B (ShowStatus) -- B close -1 S []].
181203-16:52:50 [INFO] -- B: B close -1 S []
181203-16:52:50 [INFO] -- EControlThread: message received: [B (ShowStatus) -- B close -1 S []].
181203-16:52:50 [INFO] -- B: B close -1 S []
181203-16:52:50 [INFO] -- EControlThread: message received: [A (ShowStatus) -- A close -1 S []].
181203-16:52:50 [INFO] -- A: A close -1 S []
181203-16:52:50 [INFO] -- EControlThread: message received: [A (ShowStatus) -- A close -1 S []].
181203-16:52:50 [INFO] -- A: A close -1 S []
181203-16:52:56 [INFO] -- EControlThread: message received: [B (ShowStatus) -- B close -1 S []].
181203-16:52:56 [INFO] -- B: B close -1 S []
181203-16:52:56 [INFO] -- EControlThread: message received: [B (ShowStatus) -- B close -1 S []].
181203-16:52:56 [INFO] -- B: B close -1 S []
181203-16:52:56 [INFO] -- EControlThread: message received: [A (ShowStatus) -- A close -1 S []].
181203-16:52:56 [INFO] -- A: A close -1 S []
181203-16:52:56 [INFO] -- EControlThread: message received: [A (ShowStatus) -- A close -1 S []].
181203-16:52:56 [INFO] -- A: A close -1 S []
181203-16:53:02 [INFO] -- EControlThread: message received: [B (ShowStatus) -- B close -1 S []].
181203-16:53:02 [INFO] -- B: B close -1 S []
181203-16:53:02 [INFO] -- EControlThread: message received: [B (ShowStatus) -- B close -1 S []].
181203-16:53:02 [INFO] -- B: B close -1 S []
181203-16:53:02 [INFO] -- EControlThread: message received: [A (ShowStatus) -- A close -1 S []].
181203-16:53:02 [INFO] -- A: A close -1 S []
181203-16:53:02 [INFO] -- EControlThread: message received: [A (ShowStatus) -- A close -1 S []].
181203-16:53:02 [INFO] -- A: A close -1 S []
181203-16:53:08 [INFO] -- EControlThread: message received: [B (ShowStatus) -- B close -1 S []].
181203-16:53:08 [INFO] -- B: B close -1 S []
181203-16:53:08 [INFO] -- EControlThread: message received: [B (ShowStatus) -- B close -1 S []].
181203-16:53:08 [INFO] -- B: B close -1 S []
181203-16:53:08 [INFO] -- EControlThread: message received: [A (ShowStatus) -- A close -1 S []].
181203-16:53:08 [INFO] -- A: A close -1 S []
181203-16:53:08 [INFO] -- EControlThread: message received: [A (ShowStatus) -- A close -1 S []].
181203-16:53:08 [INFO] -- A: A close -1 S []
181203-16:53:14 [INFO] -- EControlThread: message received: [B (ShowStatus) -- B close -1 S []].
181203-16:53:14 [INFO] -- B: B close -1 S []
181203-16:53:14 [INFO] -- EControlThread: message received: [B (ShowStatus) -- B close -1 S []].
181203-16:53:14 [INFO] -- B: B close -1 S []
181203-16:53:14 [INFO] -- EControlThread: message received: [A (ShowStatus) -- A close -1 S []].
181203-16:53:14 [INFO] -- A: A close -1 S []
181203-16:53:14 [INFO] -- EControlThread: message received: [A (ShowStatus) -- A close -1 S []].
181203-16:53:14 [INFO] -- A: A close -1 S []
181203-16:53:20 [INFO] -- EControlThread: message received: [B (ShowStatus) -- B close -1 S []].
181203-16:53:20 [INFO] -- B: B close -1 S []
181203-16:53:20 [INFO] -- EControlThread: message received: [B (ShowStatus) -- B close -1 S []].
181203-16:53:20 [INFO] -- B: B close -1 S []
181203-16:53:20 [INFO] -- EControlThread: message received: [A (ShowStatus) -- A close -1 S []].
181203-16:53:20 [INFO] -- A: A close -1 S []
181203-16:53:20 [INFO] -- EControlThread: message received: [A (ShowStatus) -- A close -1 S []].
181203-16:53:20 [INFO] -- A: A close -1 S []
181203-16:53:26 [INFO] -- EControlThread: message received: [B (ShowStatus) -- B close -1 S []].
181203-16:53:26 [INFO] -- B: B close -1 S []
181203-16:53:26 [INFO] -- EControlThread: message received: [B (ShowStatus) -- B close -1 S []].
181203-16:53:26 [INFO] -- B: B close -1 S []
181203-16:53:26 [INFO] -- EControlThread: message received: [A (ShowStatus) -- A close -1 S []].
181203-16:53:26 [INFO] -- A: A close -1 S []
181203-16:53:26 [INFO] -- EControlThread: message received: [A (ShowStatus) -- A close -1 S []].
181203-16:53:26 [INFO] -- A: A close -1 S []
181203-16:53:32 [INFO] -- EControlThread: message received: [B (ShowStatus) -- B close -1 S []].
181203-16:53:32 [INFO] -- B: B close -1 S []
181203-16:53:32 [INFO] -- EControlThread: message received: [B (ShowStatus) -- B close -1 S []].
181203-16:53:32 [INFO] -- B: B close -1 S []
181203-16:53:32 [INFO] -- EControlThread: message received: [A (ShowStatus) -- A close -1 S []].
181203-16:53:32 [INFO] -- A: A close -1 S []
181203-16:53:32 [INFO] -- EControlThread: message received: [A (ShowStatus) -- A close -1 S []].
181203-16:53:32 [INFO] -- A: A close -1 S []
181203-16:53:38 [INFO] -- EControlThread: message received: [B (ShowStatus) -- B close -1 S []].
181203-16:53:38 [INFO] -- B: B close -1 S []
181203-16:53:38 [INFO] -- EControlThread: message received: [B (ShowStatus) -- B close -1 S []].
181203-16:53:38 [INFO] -- B: B close -1 S []
181203-16:53:38 [INFO] -- EControlThread: message received: [A (ShowStatus) -- A close -1 S []].
181203-16:53:38 [INFO] -- A: A close -1 S []
181203-16:53:38 [INFO] -- EControlThread: message received: [A (ShowStatus) -- A close -1 S []].
181203-16:53:38 [INFO] -- A: A close -1 S []
181203-16:53:44 [INFO] -- EControlThread: message received: [B (ShowStatus) -- B close -1 S []].
181203-16:53:44 [INFO] -- B: B close -1 S []
181203-16:53:44 [INFO] -- EControlThread: message received: [B (ShowStatus) -- B close -1 S []].
181203-16:53:44 [INFO] -- B: B close -1 S []
181203-16:53:44 [INFO] -- EControlThread: message received: [A (ShowStatus) -- A close -1 S []].
181203-16:53:44 [INFO] -- A: A close -1 S []
181203-16:53:44 [INFO] -- EControlThread: message received: [A (ShowStatus) -- A close -1 S []].
181203-16:53:44 [INFO] -- A: A close -1 S []
181203-16:53:50 [INFO] -- EControlThread: message received: [B (ShowStatus) -- B close -1 S []].
181203-16:53:50 [INFO] -- B: B close -1 S []
181203-16:53:50 [INFO] -- EControlThread: message received: [B (ShowStatus) -- B close -1 S []].
181203-16:53:50 [INFO] -- B: B close -1 S []
181203-16:53:51 [INFO] -- EControlThread: message received: [A (ShowStatus) -- A close -1 S []].
181203-16:53:51 [INFO] -- A: A close -1 S []
181203-16:53:51 [INFO] -- EControlThread: message received: [A (ShowStatus) -- A close -1 S []].
181203-16:53:51 [INFO] -- A: A close -1 S []
181203-16:53:56 [INFO] -- EControlThread: message received: [B (ShowStatus) -- B close -1 S []].
181203-16:53:56 [INFO] -- B: B close -1 S []
181203-16:53:56 [INFO] -- EControlThread: message received: [B (ShowStatus) -- B close -1 S []].
181203-16:53:56 [INFO] -- B: B close -1 S []
181203-16:53:57 [INFO] -- EControlThread: message received: [A (ShowStatus) -- A close -1 S []].
181203-16:53:57 [INFO] -- A: A close -1 S []
181203-16:53:57 [INFO] -- EControlThread: message received: [A (ShowStatus) -- A close -1 S []].
181203-16:53:57 [INFO] -- A: A close -1 S []
181203-16:54:02 [INFO] -- EControlThread: message received: [B (ShowStatus) -- B close -1 S []].
181203-16:54:02 [INFO] -- B: B close -1 S []
181203-16:54:02 [INFO] -- EControlThread: message received: [B (ShowStatus) -- B close -1 S []].
181203-16:54:02 [INFO] -- B: B close -1 S []
181203-16:54:03 [INFO] -- EControlThread: message received: [A (ShowStatus) -- A close -1 S []].
181203-16:54:03 [INFO] -- A: A close -1 S []
181203-16:54:03 [INFO] -- EControlThread: message received: [A (ShowStatus) -- A close -1 S []].
181203-16:54:03 [INFO] -- A: A close -1 S []
181203-16:54:08 [INFO] -- EControlThread: message received: [B (ShowStatus) -- B close -1 S []].
181203-16:54:08 [INFO] -- B: B close -1 S []
181203-16:54:08 [INFO] -- EControlThread: message received: [B (ShowStatus) -- B close -1 S []].
181203-16:54:08 [INFO] -- B: B close -1 S []
181203-16:54:09 [INFO] -- EControlThread: message received: [A (ShowStatus) -- A close -1 S []].
181203-16:54:09 [INFO] -- A: A close -1 S []
181203-16:54:09 [INFO] -- EControlThread: message received: [A (ShowStatus) -- A close -1 S []].
181203-16:54:09 [INFO] -- A: A close -1 S []
181203-16:54:14 [INFO] -- EControlThread: message received: [B (ShowStatus) -- B close -1 S []].
181203-16:54:14 [INFO] -- B: B close -1 S []
181203-16:54:14 [INFO] -- EControlThread: message received: [B (ShowStatus) -- B close -1 S []].
181203-16:54:14 [INFO] -- B: B close -1 S []
181203-16:54:15 [INFO] -- EControlThread: message received: [A (ShowStatus) -- A close -1 S []].
181203-16:54:15 [INFO] -- A: A close -1 S []
181203-16:54:15 [INFO] -- EControlThread: message received: [A (ShowStatus) -- A close -1 S []].
181203-16:54:15 [INFO] -- A: A close -1 S []
181203-16:54:20 [INFO] -- EControlThread: message received: [B (ShowStatus) -- B close -1 S []].
181203-16:54:20 [INFO] -- B: B close -1 S []
181203-16:54:20 [INFO] -- EControlThread: message received: [B (ShowStatus) -- B close -1 S []].
181203-16:54:20 [INFO] -- B: B close -1 S []
181203-16:54:21 [INFO] -- EControlThread: message received: [A (ShowStatus) -- A close -1 S []].
181203-16:54:21 [INFO] -- A: A close -1 S []
181203-16:54:21 [INFO] -- EControlThread: message received: [A (ShowStatus) -- A close -1 S []].
181203-16:54:21 [INFO] -- A: A close -1 S []
181203-16:54:26 [INFO] -- EControlThread: message received: [B (ShowStatus) -- B close -1 S []].
181203-16:54:26 [INFO] -- B: B close -1 S []
181203-16:54:26 [INFO] -- EControlThread: message received: [B (ShowStatus) -- B close -1 S []].
181203-16:54:26 [INFO] -- B: B close -1 S []
181203-16:54:27 [INFO] -- EControlThread: message received: [A (ShowStatus) -- A close -1 S []].
181203-16:54:27 [INFO] -- A: A close -1 S []
181203-16:54:27 [INFO] -- EControlThread: message received: [A (ShowStatus) -- A close -1 S []].
181203-16:54:27 [INFO] -- A: A close -1 S []
181203-16:54:32 [INFO] -- EControlThread: message received: [B (ShowStatus) -- B close -1 S []].
181203-16:54:33 [INFO] -- B: B close -1 S []
181203-16:54:33 [INFO] -- EControlThread: message received: [B (ShowStatus) -- B close -1 S []].
181203-16:54:33 [INFO] -- B: B close -1 S []
181203-16:54:33 [INFO] -- EControlThread: message received: [A (ShowStatus) -- A close -1 S []].
181203-16:54:33 [INFO] -- A: A close -1 S []
181203-16:54:33 [INFO] -- EControlThread: message received: [A (ShowStatus) -- A close -1 S []].
181203-16:54:33 [INFO] -- A: A close -1 S []
181203-16:54:39 [INFO] -- EControlThread: message received: [B (ShowStatus) -- B close -1 S []].
181203-16:54:39 [INFO] -- B: B close -1 S []
181203-16:54:39 [INFO] -- EControlThread: message received: [B (ShowStatus) -- B close -1 S []].
181203-16:54:39 [INFO] -- B: B close -1 S []
181203-16:54:39 [INFO] -- EControlThread: message received: [A (ShowStatus) -- A close -1 S []].
181203-16:54:39 [INFO] -- A: A close -1 S []
181203-16:54:39 [INFO] -- EControlThread: message received: [A (ShowStatus) -- A close -1 S []].
181203-16:54:39 [INFO] -- A: A close -1 S []
181203-16:54:45 [INFO] -- EControlThread: message received: [B (ShowStatus) -- B close -1 S []].
181203-16:54:45 [INFO] -- B: B close -1 S []
181203-16:54:45 [INFO] -- EControlThread: message received: [B (ShowStatus) -- B close -1 S []].
181203-16:54:45 [INFO] -- B: B close -1 S []
181203-16:54:45 [INFO] -- EControlThread: message received: [A (ShowStatus) -- A close -1 S []].
181203-16:54:45 [INFO] -- A: A close -1 S []
181203-16:54:45 [INFO] -- EControlThread: message received: [A (ShowStatus) -- A close -1 S []].
181203-16:54:45 [INFO] -- A: A close -1 S []
181203-16:54:51 [INFO] -- EControlThread: message received: [B (ShowStatus) -- B close -1 S []].
181203-16:54:51 [INFO] -- B: B close -1 S []
181203-16:54:51 [INFO] -- EControlThread: message received: [B (ShowStatus) -- B close -1 S []].
181203-16:54:51 [INFO] -- B: B close -1 S []
181203-16:54:51 [INFO] -- EControlThread: message received: [A (ShowStatus) -- A close -1 S []].
181203-16:54:51 [INFO] -- A: A close -1 S []
181203-16:54:51 [INFO] -- EControlThread: message received: [A (ShowStatus) -- A close -1 S []].
181203-16:54:51 [INFO] -- A: A close -1 S []
181203-16:54:57 [INFO] -- EControlThread: message received: [B (ShowStatus) -- B close -1 S []].
181203-16:54:57 [INFO] -- B: B close -1 S []
181203-16:54:57 [INFO] -- EControlThread: message received: [B (ShowStatus) -- B close -1 S []].
181203-16:54:57 [INFO] -- B: B close -1 S []
181203-16:54:57 [INFO] -- EControlThread: message received: [A (ShowStatus) -- A close -1 S []].
181203-16:54:57 [INFO] -- A: A close -1 S []
181203-16:54:57 [INFO] -- EControlThread: message received: [A (ShowStatus) -- A close -1 S []].
181203-16:54:57 [INFO] -- A: A close -1 S []
181203-16:55:03 [INFO] -- EControlThread: message received: [B (ShowStatus) -- B close -1 S []].
181203-16:55:03 [INFO] -- B: B close -1 S []
181203-16:55:03 [INFO] -- EControlThread: message received: [B (ShowStatus) -- B close -1 S []].
181203-16:55:03 [INFO] -- B: B close -1 S []
181203-16:55:03 [INFO] -- EControlThread: message received: [A (ShowStatus) -- A close -1 S []].
181203-16:55:03 [INFO] -- A: A close -1 S []
181203-16:55:03 [INFO] -- EControlThread: message received: [A (ShowStatus) -- A close -1 S []].
181203-16:55:03 [INFO] -- A: A close -1 S []
181203-16:55:09 [INFO] -- EControlThread: message received: [B (ShowStatus) -- B close -1 S []].
181203-16:55:09 [INFO] -- B: B close -1 S []
181203-16:55:09 [INFO] -- EControlThread: message received: [B (ShowStatus) -- B close -1 S []].
181203-16:55:09 [INFO] -- B: B close -1 S []
181203-16:55:09 [INFO] -- EControlThread: message received: [A (ShowStatus) -- A close -1 S []].
181203-16:55:09 [INFO] -- A: A close -1 S []
181203-16:55:09 [INFO] -- EControlThread: message received: [A (ShowStatus) -- A close -1 S []].
181203-16:55:09 [INFO] -- A: A close -1 S []
181203-16:55:15 [INFO] -- EControlThread: message received: [B (ShowStatus) -- B close -1 S []].
181203-16:55:15 [INFO] -- B: B close -1 S []
181203-16:55:15 [INFO] -- EControlThread: message received: [B (ShowStatus) -- B close -1 S []].
181203-16:55:15 [INFO] -- B: B close -1 S []
181203-16:55:15 [INFO] -- EControlThread: message received: [A (ShowStatus) -- A close -1 S []].
181203-16:55:15 [INFO] -- A: A close -1 S []
181203-16:55:15 [INFO] -- EControlThread: message received: [A (ShowStatus) -- A close -1 S []].
181203-16:55:15 [INFO] -- A: A close -1 S []
181203-16:55:21 [INFO] -- EControlThread: message received: [B (ShowStatus) -- B close -1 S []].
181203-16:55:21 [INFO] -- B: B close -1 S []
181203-16:55:21 [INFO] -- EControlThread: message received: [B (ShowStatus) -- B close -1 S []].
181203-16:55:21 [INFO] -- B: B close -1 S []
181203-16:55:21 [INFO] -- EControlThread: message received: [A (ShowStatus) -- A close -1 S []].
181203-16:55:21 [INFO] -- A: A close -1 S []
181203-16:55:21 [INFO] -- EControlThread: message received: [A (ShowStatus) -- A close -1 S []].
181203-16:55:21 [INFO] -- A: A close -1 S []
181203-16:55:27 [INFO] -- EControlThread: message received: [B (ShowStatus) -- B close -1 S []].
181203-16:55:27 [INFO] -- B: B close -1 S []
181203-16:55:27 [INFO] -- EControlThread: message received: [B (ShowStatus) -- B close -1 S []].
181203-16:55:27 [INFO] -- B: B close -1 S []
181203-16:55:27 [INFO] -- EControlThread: message received: [A (ShowStatus) -- A close -1 S []].
181203-16:55:27 [INFO] -- A: A close -1 S []
181203-16:55:27 [INFO] -- EControlThread: message received: [A (ShowStatus) -- A close -1 S []].
181203-16:55:27 [INFO] -- A: A close -1 S []
181203-16:55:33 [INFO] -- EControlThread: message received: [B (ShowStatus) -- B close -1 S []].
181203-16:55:33 [INFO] -- B: B close -1 S []
181203-16:55:33 [INFO] -- EControlThread: message received: [B (ShowStatus) -- B close -1 S []].
181203-16:55:33 [INFO] -- B: B close -1 S []
181203-16:55:33 [INFO] -- EControlThread: message received: [A (ShowStatus) -- A close -1 S []].
181203-16:55:33 [INFO] -- A: A close -1 S []
181203-16:55:33 [INFO] -- EControlThread: message received: [A (ShowStatus) -- A close -1 S []].
181203-16:55:33 [INFO] -- A: A close -1 S []
181203-16:55:39 [INFO] -- EControlThread: message received: [B (ShowStatus) -- B close -1 S []].
181203-16:55:39 [INFO] -- B: B close -1 S []
181203-16:55:39 [INFO] -- EControlThread: message received: [B (ShowStatus) -- B close -1 S []].
181203-16:55:39 [INFO] -- B: B close -1 S []
181203-16:55:39 [INFO] -- EControlThread: message received: [A (ShowStatus) -- A close -1 S []].
181203-16:55:39 [INFO] -- A: A close -1 S []
181203-16:55:39 [INFO] -- EControlThread: message received: [A (ShowStatus) -- A close -1 S []].
181203-16:55:39 [INFO] -- A: A close -1 S []
181203-16:55:45 [INFO] -- EControlThread: message received: [B (ShowStatus) -- B close -1 S []].
181203-16:55:45 [INFO] -- B: B close -1 S []
181203-16:55:45 [INFO] -- EControlThread: message received: [B (ShowStatus) -- B close -1 S []].
181203-16:55:45 [INFO] -- B: B close -1 S []
181203-16:55:45 [INFO] -- EControlThread: message received: [A (ShowStatus) -- A close -1 S []].
181203-16:55:45 [INFO] -- A: A close -1 S []
181203-16:55:45 [INFO] -- EControlThread: message received: [A (ShowStatus) -- A close -1 S []].
181203-16:55:45 [INFO] -- A: A close -1 S []
181203-16:55:51 [INFO] -- EControlThread: message received: [B (ShowStatus) -- B close -1 S []].
181203-16:55:51 [INFO] -- B: B close -1 S []
181203-16:55:51 [INFO] -- EControlThread: message received: [B (ShowStatus) -- B close -1 S []].
181203-16:55:51 [INFO] -- B: B close -1 S []
181203-16:55:51 [INFO] -- EControlThread: message received: [A (ShowStatus) -- A close -1 S []].
181203-16:55:51 [INFO] -- A: A close -1 S []
181203-16:55:51 [INFO] -- EControlThread: message received: [A (ShowStatus) -- A close -1 S []].
181203-16:55:51 [INFO] -- A: A close -1 S []
181203-16:55:57 [INFO] -- EControlThread: message received: [B (ShowStatus) -- B close -1 S []].
181203-16:55:57 [INFO] -- B: B close -1 S []
181203-16:55:57 [INFO] -- EControlThread: message received: [B (ShowStatus) -- B close -1 S []].
181203-16:55:57 [INFO] -- B: B close -1 S []
181203-16:55:57 [INFO] -- EControlThread: message received: [A (ShowStatus) -- A close -1 S []].
181203-16:55:57 [INFO] -- A: A close -1 S []
181203-16:55:57 [INFO] -- EControlThread: message received: [A (ShowStatus) -- A close -1 S []].
181203-16:55:57 [INFO] -- A: A close -1 S []
181203-16:56:03 [INFO] -- EControlThread: message received: [B (ShowStatus) -- B close -1 S []].
181203-16:56:03 [INFO] -- B: B close -1 S []
181203-16:56:03 [INFO] -- EControlThread: message received: [B (ShowStatus) -- B close -1 S []].
181203-16:56:03 [INFO] -- B: B close -1 S []
181203-16:56:03 [INFO] -- EControlThread: message received: [A (ShowStatus) -- A close -1 S []].
181203-16:56:03 [INFO] -- A: A close -1 S []
181203-16:56:03 [INFO] -- EControlThread: message received: [A (ShowStatus) -- A close -1 S []].
181203-16:56:03 [INFO] -- A: A close -1 S []
181203-16:56:09 [INFO] -- EControlThread: message received: [B (ShowStatus) -- B close -1 S []].
181203-16:56:09 [INFO] -- B: B close -1 S []
181203-16:56:09 [INFO] -- EControlThread: message received: [B (ShowStatus) -- B close -1 S []].
181203-16:56:09 [INFO] -- B: B close -1 S []
181203-16:56:09 [INFO] -- EControlThread: message received: [A (ShowStatus) -- A close -1 S []].
181203-16:56:09 [INFO] -- A: A close -1 S []
181203-16:56:09 [INFO] -- EControlThread: message received: [A (ShowStatus) -- A close -1 S []].
181203-16:56:09 [INFO] -- A: A close -1 S []
181203-16:56:15 [INFO] -- EControlThread: message received: [B (ShowStatus) -- B close -1 S []].
181203-16:56:15 [INFO] -- B: B close -1 S []
181203-16:56:15 [INFO] -- EControlThread: message received: [B (ShowStatus) -- B close -1 S []].
181203-16:56:15 [INFO] -- B: B close -1 S []
181203-16:56:15 [INFO] -- EControlThread: message received: [A (ShowStatus) -- A close -1 S []].
181203-16:56:15 [INFO] -- A: A close -1 S []
181203-16:56:15 [INFO] -- EControlThread: message received: [A (ShowStatus) -- A close -1 S []].
181203-16:56:15 [INFO] -- A: A close -1 S []
181203-16:56:21 [INFO] -- EControlThread: message received: [B (ShowStatus) -- B close -1 S []].
181203-16:56:21 [INFO] -- B: B close -1 S []
181203-16:56:21 [INFO] -- EControlThread: message received: [B (ShowStatus) -- B close -1 S []].
181203-16:56:21 [INFO] -- B: B close -1 S []
181203-16:56:21 [INFO] -- EControlThread: message received: [A (ShowStatus) -- A close -1 S []].
181203-16:56:21 [INFO] -- A: A close -1 S []
181203-16:56:21 [INFO] -- EControlThread: message received: [A (ShowStatus) -- A close -1 S []].
181203-16:56:21 [INFO] -- A: A close -1 S []
181203-16:56:27 [INFO] -- EControlThread: message received: [B (ShowStatus) -- B close -1 S []].
181203-16:56:27 [INFO] -- B: B close -1 S []
181203-16:56:27 [INFO] -- EControlThread: message received: [B (ShowStatus) -- B close -1 S []].
181203-16:56:27 [INFO] -- B: B close -1 S []
181203-16:56:27 [INFO] -- EControlThread: message received: [A (ShowStatus) -- A close -1 S []].
181203-16:56:27 [INFO] -- A: A close -1 S []
181203-16:56:27 [INFO] -- EControlThread: message received: [A (ShowStatus) -- A close -1 S []].
181203-16:56:27 [INFO] -- A: A close -1 S []
181203-16:56:33 [INFO] -- EControlThread: message received: [B (ShowStatus) -- B close -1 S []].
181203-16:56:33 [INFO] -- B: B close -1 S []
181203-16:56:33 [INFO] -- EControlThread: message received: [B (ShowStatus) -- B close -1 S []].
181203-16:56:33 [INFO] -- B: B close -1 S []
181203-16:56:33 [INFO] -- EControlThread: message received: [A (ShowStatus) -- A close -1 S []].
181203-16:56:33 [INFO] -- A: A close -1 S []
181203-16:56:33 [INFO] -- EControlThread: message received: [A (ShowStatus) -- A close -1 S []].
181203-16:56:33 [INFO] -- A: A close -1 S []
181203-16:56:39 [INFO] -- EControlThread: message received: [B (ShowStatus) -- B close -1 S []].
181203-16:56:39 [INFO] -- B: B close -1 S []
181203-16:56:39 [INFO] -- EControlThread: message received: [B (ShowStatus) -- B close -1 S []].
181203-16:56:39 [INFO] -- B: B close -1 S []
181203-16:56:39 [INFO] -- EControlThread: message received: [A (ShowStatus) -- A close -1 S []].
181203-16:56:39 [INFO] -- A: A close -1 S []
181203-16:56:39 [INFO] -- EControlThread: message received: [A (ShowStatus) -- A close -1 S []].
181203-16:56:39 [INFO] -- A: A close -1 S []
181203-16:56:45 [INFO] -- EControlThread: message received: [B (ShowStatus) -- B close -1 S []].
181203-16:56:45 [INFO] -- B: B close -1 S []
181203-16:56:45 [INFO] -- EControlThread: message received: [B (ShowStatus) -- B close -1 S []].
181203-16:56:45 [INFO] -- B: B close -1 S []
181203-16:56:45 [INFO] -- EControlThread: message received: [A (ShowStatus) -- A close -1 S []].
181203-16:56:45 [INFO] -- A: A close -1 S []
181203-16:56:45 [INFO] -- EControlThread: message received: [A (ShowStatus) -- A close -1 S []].
181203-16:56:45 [INFO] -- A: A close -1 S []
181203-16:56:51 [INFO] -- EControlThread: message received: [B (ShowStatus) -- B close -1 S []].
181203-16:56:51 [INFO] -- B: B close -1 S []
181203-16:56:51 [INFO] -- EControlThread: message received: [B (ShowStatus) -- B close -1 S []].
181203-16:56:51 [INFO] -- B: B close -1 S []
181203-16:56:51 [INFO] -- EControlThread: message received: [A (ShowStatus) -- A close -1 S []].
181203-16:56:51 [INFO] -- A: A close -1 S []
181203-16:56:51 [INFO] -- EControlThread: message received: [A (ShowStatus) -- A close -1 S []].
181203-16:56:51 [INFO] -- A: A close -1 S []
181203-16:56:57 [INFO] -- EControlThread: message received: [B (ShowStatus) -- B close -1 S []].
181203-16:56:57 [INFO] -- B: B close -1 S []
181203-16:56:57 [INFO] -- EControlThread: message received: [B (ShowStatus) -- B close -1 S []].
181203-16:56:57 [INFO] -- B: B close -1 S []
181203-16:56:57 [INFO] -- EControlThread: message received: [A (ShowStatus) -- A close -1 S []].
181203-16:56:57 [INFO] -- A: A close -1 S []
181203-16:56:57 [INFO] -- EControlThread: message received: [A (ShowStatus) -- A close -1 S []].
181203-16:56:57 [INFO] -- A: A close -1 S []
181203-16:57:03 [INFO] -- EControlThread: message received: [B (ShowStatus) -- B close -1 S []].
181203-16:57:03 [INFO] -- B: B close -1 S []
181203-16:57:03 [INFO] -- EControlThread: message received: [B (ShowStatus) -- B close -1 S []].
181203-16:57:03 [INFO] -- B: B close -1 S []
181203-16:57:03 [INFO] -- EControlThread: message received: [A (ShowStatus) -- A close -1 S []].
181203-16:57:03 [INFO] -- A: A close -1 S []
181203-16:57:03 [INFO] -- EControlThread: message received: [A (ShowStatus) -- A close -1 S []].
181203-16:57:03 [INFO] -- A: A close -1 S []
181203-16:57:09 [INFO] -- EControlThread: message received: [B (ShowStatus) -- B close -1 S []].
181203-16:57:09 [INFO] -- B: B close -1 S []
181203-16:57:09 [INFO] -- EControlThread: message received: [B (ShowStatus) -- B close -1 S []].
181203-16:57:09 [INFO] -- B: B close -1 S []
181203-16:57:09 [INFO] -- EControlThread: message received: [A (ShowStatus) -- A close -1 S []].
181203-16:57:09 [INFO] -- A: A close -1 S []
181203-16:57:09 [INFO] -- EControlThread: message received: [A (ShowStatus) -- A close -1 S []].
181203-16:57:09 [INFO] -- A: A close -1 S []
181203-16:57:15 [INFO] -- EControlThread: message received: [B (ShowStatus) -- B close -1 S []].
181203-16:57:15 [INFO] -- B: B close -1 S []
181203-16:57:15 [INFO] -- EControlThread: message received: [B (ShowStatus) -- B close -1 S []].
181203-16:57:15 [INFO] -- B: B close -1 S []
181203-16:57:15 [INFO] -- EControlThread: message received: [A (ShowStatus) -- A close -1 S []].
181203-16:57:15 [INFO] -- A: A close -1 S []
181203-16:57:15 [INFO] -- EControlThread: message received: [A (ShowStatus) -- A close -1 S []].
181203-16:57:15 [INFO] -- A: A close -1 S []
181203-16:57:21 [INFO] -- EControlThread: message received: [B (ShowStatus) -- B close -1 S []].
181203-16:57:21 [INFO] -- B: B close -1 S []
181203-16:57:21 [INFO] -- EControlThread: message received: [B (ShowStatus) -- B close -1 S []].
181203-16:57:21 [INFO] -- B: B close -1 S []
181203-16:57:21 [INFO] -- EControlThread: message received: [A (ShowStatus) -- A close -1 S []].
181203-16:57:21 [INFO] -- A: A close -1 S []
181203-16:57:21 [INFO] -- EControlThread: message received: [A (ShowStatus) -- A close -1 S []].
181203-16:57:21 [INFO] -- A: A close -1 S []
181203-16:57:27 [INFO] -- EControlThread: message received: [B (ShowStatus) -- B close -1 S []].
181203-16:57:27 [INFO] -- B: B close -1 S []
181203-16:57:27 [INFO] -- EControlThread: message received: [B (ShowStatus) -- B close -1 S []].
181203-16:57:27 [INFO] -- B: B close -1 S []
181203-16:57:27 [INFO] -- EControlThread: message received: [A (ShowStatus) -- A close -1 S []].
181203-16:57:27 [INFO] -- A: A close -1 S []
181203-16:57:27 [INFO] -- EControlThread: message received: [A (ShowStatus) -- A close -1 S []].
181203-16:57:27 [INFO] -- A: A close -1 S []
181203-16:57:33 [INFO] -- EControlThread: message received: [B (ShowStatus) -- B close -1 S []].
181203-16:57:33 [INFO] -- B: B close -1 S []
181203-16:57:33 [INFO] -- EControlThread: message received: [B (ShowStatus) -- B close -1 S []].
181203-16:57:33 [INFO] -- B: B close -1 S []
181203-16:57:33 [INFO] -- EControlThread: message received: [A (ShowStatus) -- A close -1 S []].
181203-16:57:33 [INFO] -- A: A close -1 S []
181203-16:57:33 [INFO] -- EControlThread: message received: [A (ShowStatus) -- A close -1 S []].
181203-16:57:33 [INFO] -- A: A close -1 S []
181203-16:57:39 [INFO] -- EControlThread: message received: [B (ShowStatus) -- B close -1 S []].
181203-16:57:39 [INFO] -- B: B close -1 S []
181203-16:57:39 [INFO] -- EControlThread: message received: [B (ShowStatus) -- B close -1 S []].
181203-16:57:39 [INFO] -- B: B close -1 S []
181203-16:57:39 [INFO] -- EControlThread: message received: [A (ShowStatus) -- A close -1 S []].
181203-16:57:39 [INFO] -- A: A close -1 S []
181203-16:57:39 [INFO] -- EControlThread: message received: [A (ShowStatus) -- A close -1 S []].
181203-16:57:39 [INFO] -- A: A close -1 S []
181203-16:57:45 [INFO] -- EControlThread: message received: [B (ShowStatus) -- B close -1 S []].
181203-16:57:45 [INFO] -- B: B close -1 S []
181203-16:57:45 [INFO] -- EControlThread: message received: [B (ShowStatus) -- B close -1 S []].
181203-16:57:45 [INFO] -- B: B close -1 S []
181203-16:57:45 [INFO] -- EControlThread: message received: [A (ShowStatus) -- A close -1 S []].
181203-16:57:45 [INFO] -- A: A close -1 S []
181203-16:57:45 [INFO] -- EControlThread: message received: [A (ShowStatus) -- A close -1 S []].
181203-16:57:45 [INFO] -- A: A close -1 S []
181203-16:57:51 [INFO] -- EControlThread: message received: [B (ShowStatus) -- B close -1 S []].
181203-16:57:51 [INFO] -- B: B close -1 S []
181203-16:57:51 [INFO] -- EControlThread: message received: [B (ShowStatus) -- B close -1 S []].
181203-16:57:51 [INFO] -- B: B close -1 S []
181203-16:57:51 [INFO] -- EControlThread: message received: [A (ShowStatus) -- A close -1 S []].
181203-16:57:51 [INFO] -- A: A close -1 S []
181203-16:57:51 [INFO] -- EControlThread: message received: [A (ShowStatus) -- A close -1 S []].
181203-16:57:51 [INFO] -- A: A close -1 S []
181203-16:57:57 [INFO] -- EControlThread: message received: [B (ShowStatus) -- B close -1 S []].
181203-16:57:57 [INFO] -- B: B close -1 S []
181203-16:57:57 [INFO] -- EControlThread: message received: [B (ShowStatus) -- B close -1 S []].
181203-16:57:57 [INFO] -- B: B close -1 S []
181203-16:57:57 [INFO] -- EControlThread: message received: [A (ShowStatus) -- A close -1 S []].
181203-16:57:57 [INFO] -- A: A close -1 S []
181203-16:57:57 [INFO] -- EControlThread: message received: [A (ShowStatus) -- A close -1 S []].
181203-16:57:57 [INFO] -- A: A close -1 S []
181203-16:58:03 [INFO] -- EControlThread: message received: [B (ShowStatus) -- B close -1 S []].
181203-16:58:03 [INFO] -- B: B close -1 S []
181203-16:58:03 [INFO] -- EControlThread: message received: [B (ShowStatus) -- B close -1 S []].
181203-16:58:03 [INFO] -- B: B close -1 S []
181203-16:58:03 [INFO] -- EControlThread: message received: [A (ShowStatus) -- A close -1 S []].
181203-16:58:03 [INFO] -- A: A close -1 S []
181203-16:58:03 [INFO] -- EControlThread: message received: [A (ShowStatus) -- A close -1 S []].
181203-16:58:03 [INFO] -- A: A close -1 S []
181203-16:58:09 [INFO] -- EControlThread: message received: [B (ShowStatus) -- B close -1 S []].
181203-16:58:09 [INFO] -- B: B close -1 S []
181203-16:58:09 [INFO] -- EControlThread: message received: [B (ShowStatus) -- B close -1 S []].
181203-16:58:09 [INFO] -- B: B close -1 S []
181203-16:58:09 [INFO] -- EControlThread: message received: [A (ShowStatus) -- A close -1 S []].
181203-16:58:09 [INFO] -- A: A close -1 S []
181203-16:58:09 [INFO] -- EControlThread: message received: [A (ShowStatus) -- A close -1 S []].
181203-16:58:09 [INFO] -- A: A close -1 S []
181203-16:58:15 [INFO] -- EControlThread: message received: [B (ShowStatus) -- B close -1 S []].
181203-16:58:15 [INFO] -- B: B close -1 S []
181203-16:58:15 [INFO] -- EControlThread: message received: [B (ShowStatus) -- B close -1 S []].
181203-16:58:15 [INFO] -- B: B close -1 S []
181203-16:58:15 [INFO] -- EControlThread: message received: [A (ShowStatus) -- A close -1 S []].
181203-16:58:15 [INFO] -- A: A close -1 S []
181203-16:58:15 [INFO] -- EControlThread: message received: [A (ShowStatus) -- A close -1 S []].
181203-16:58:15 [INFO] -- A: A close -1 S []
181203-16:58:21 [INFO] -- EControlThread: message received: [B (ShowStatus) -- B close -1 S []].
181203-16:58:21 [INFO] -- B: B close -1 S []
181203-16:58:21 [INFO] -- EControlThread: message received: [B (ShowStatus) -- B close -1 S []].
181203-16:58:21 [INFO] -- B: B close -1 S []
181203-16:58:21 [INFO] -- EControlThread: message received: [A (ShowStatus) -- A close -1 S []].
181203-16:58:21 [INFO] -- A: A close -1 S []
181203-16:58:21 [INFO] -- EControlThread: message received: [A (ShowStatus) -- A close -1 S []].
181203-16:58:21 [INFO] -- A: A close -1 S []
181203-16:58:27 [INFO] -- EControlThread: message received: [B (ShowStatus) -- B close -1 S []].
181203-16:58:27 [INFO] -- B: B close -1 S []
181203-16:58:27 [INFO] -- EControlThread: message received: [B (ShowStatus) -- B close -1 S []].
181203-16:58:27 [INFO] -- B: B close -1 S []
181203-16:58:27 [INFO] -- EControlThread: message received: [A (ShowStatus) -- A close -1 S []].
181203-16:58:27 [INFO] -- A: A close -1 S []
181203-16:58:27 [INFO] -- EControlThread: message received: [A (ShowStatus) -- A close -1 S []].
181203-16:58:27 [INFO] -- A: A close -1 S []
181203-16:58:33 [INFO] -- EControlThread: message received: [B (ShowStatus) -- B close -1 S []].
181203-16:58:33 [INFO] -- B: B close -1 S []
181203-16:58:33 [INFO] -- EControlThread: message received: [B (ShowStatus) -- B close -1 S []].
181203-16:58:33 [INFO] -- B: B close -1 S []
181203-16:58:33 [INFO] -- EControlThread: message received: [A (ShowStatus) -- A close -1 S []].
181203-16:58:33 [INFO] -- A: A close -1 S []
181203-16:58:33 [INFO] -- EControlThread: message received: [A (ShowStatus) -- A close -1 S []].
181203-16:58:33 [INFO] -- A: A close -1 S []
181203-16:58:39 [INFO] -- EControlThread: message received: [B (ShowStatus) -- B close -1 S []].
181203-16:58:39 [INFO] -- B: B close -1 S []
181203-16:58:39 [INFO] -- EControlThread: message received: [B (ShowStatus) -- B close -1 S []].
181203-16:58:39 [INFO] -- B: B close -1 S []
181203-16:58:39 [INFO] -- EControlThread: message received: [A (ShowStatus) -- A close -1 S []].
181203-16:58:39 [INFO] -- A: A close -1 S []
181203-16:58:39 [INFO] -- EControlThread: message received: [A (ShowStatus) -- A close -1 S []].
181203-16:58:39 [INFO] -- A: A close -1 S []
181203-16:58:45 [INFO] -- EControlThread: message received: [B (ShowStatus) -- B close -1 S []].
181203-16:58:45 [INFO] -- B: B close -1 S []
181203-16:58:45 [INFO] -- EControlThread: message received: [B (ShowStatus) -- B close -1 S []].
181203-16:58:45 [INFO] -- B: B close -1 S []
181203-16:58:45 [INFO] -- EControlThread: message received: [A (ShowStatus) -- A close -1 S []].
181203-16:58:45 [INFO] -- A: A close -1 S []
181203-16:58:45 [INFO] -- EControlThread: message received: [A (ShowStatus) -- A close -1 S []].
181203-16:58:45 [INFO] -- A: A close -1 S []
181203-16:58:51 [INFO] -- EControlThread: message received: [B (ShowStatus) -- B close -1 S []].
181203-16:58:51 [INFO] -- B: B close -1 S []
181203-16:58:51 [INFO] -- EControlThread: message received: [B (ShowStatus) -- B close -1 S []].
181203-16:58:51 [INFO] -- B: B close -1 S []
181203-16:58:51 [INFO] -- EControlThread: message received: [A (ShowStatus) -- A close -1 S []].
181203-16:58:51 [INFO] -- A: A close -1 S []
181203-16:58:51 [INFO] -- EControlThread: message received: [A (ShowStatus) -- A close -1 S []].
181203-16:58:51 [INFO] -- A: A close -1 S []
181203-16:58:57 [INFO] -- EControlThread: message received: [B (ShowStatus) -- B close -1 S []].
181203-16:58:57 [INFO] -- B: B close -1 S []
181203-16:58:57 [INFO] -- EControlThread: message received: [B (ShowStatus) -- B close -1 S []].
181203-16:58:57 [INFO] -- B: B close -1 S []
181203-16:58:57 [INFO] -- EControlThread: message received: [A (ShowStatus) -- A close -1 S []].
181203-16:58:57 [INFO] -- A: A close -1 S []
181203-16:58:57 [INFO] -- EControlThread: message received: [A (ShowStatus) -- A close -1 S []].
181203-16:58:57 [INFO] -- A: A close -1 S []
181203-16:59:03 [INFO] -- EControlThread: message received: [B (ShowStatus) -- B close -1 S []].
181203-16:59:03 [INFO] -- B: B close -1 S []
181203-16:59:03 [INFO] -- EControlThread: message received: [B (ShowStatus) -- B close -1 S []].
181203-16:59:03 [INFO] -- B: B close -1 S []
181203-16:59:03 [INFO] -- EControlThread: message received: [A (ShowStatus) -- A close -1 S []].
181203-16:59:03 [INFO] -- A: A close -1 S []
181203-16:59:03 [INFO] -- EControlThread: message received: [A (ShowStatus) -- A close -1 S []].
181203-16:59:03 [INFO] -- A: A close -1 S []
181203-16:59:09 [INFO] -- EControlThread: message received: [B (ShowStatus) -- B close -1 S []].
181203-16:59:09 [INFO] -- B: B close -1 S []
181203-16:59:09 [INFO] -- EControlThread: message received: [B (ShowStatus) -- B close -1 S []].
181203-16:59:09 [INFO] -- B: B close -1 S []
181203-16:59:09 [INFO] -- EControlThread: message received: [A (ShowStatus) -- A close -1 S []].
181203-16:59:09 [INFO] -- A: A close -1 S []
181203-16:59:09 [INFO] -- EControlThread: message received: [A (ShowStatus) -- A close -1 S []].
181203-16:59:09 [INFO] -- A: A close -1 S []
181203-16:59:15 [INFO] -- EControlThread: message received: [B (ShowStatus) -- B close -1 S []].
181203-16:59:15 [INFO] -- B: B close -1 S []
181203-16:59:15 [INFO] -- EControlThread: message received: [B (ShowStatus) -- B close -1 S []].
181203-16:59:15 [INFO] -- B: B close -1 S []
181203-16:59:15 [INFO] -- EControlThread: message received: [A (ShowStatus) -- A close -1 S []].
181203-16:59:15 [INFO] -- A: A close -1 S []
181203-16:59:15 [INFO] -- EControlThread: message received: [A (ShowStatus) -- A close -1 S []].
181203-16:59:15 [INFO] -- A: A close -1 S []
181203-16:59:21 [INFO] -- EControlThread: message received: [B (ShowStatus) -- B close -1 S []].
181203-16:59:21 [INFO] -- B: B close -1 S []
181203-16:59:21 [INFO] -- EControlThread: message received: [B (ShowStatus) -- B close -1 S []].
181203-16:59:21 [INFO] -- B: B close -1 S []
181203-16:59:21 [INFO] -- EControlThread: message received: [A (ShowStatus) -- A close -1 S []].
181203-16:59:21 [INFO] -- A: A close -1 S []
181203-16:59:21 [INFO] -- EControlThread: message received: [A (ShowStatus) -- A close -1 S []].
181203-16:59:21 [INFO] -- A: A close -1 S []
181203-16:59:27 [INFO] -- EControlThread: message received: [B (ShowStatus) -- B close -1 S []].
181203-16:59:27 [INFO] -- B: B close -1 S []
181203-16:59:27 [INFO] -- EControlThread: message received: [B (ShowStatus) -- B close -1 S []].
181203-16:59:27 [INFO] -- B: B close -1 S []
181203-16:59:27 [INFO] -- EControlThread: message received: [A (ShowStatus) -- A close -1 S []].
181203-16:59:27 [INFO] -- A: A close -1 S []
181203-16:59:27 [INFO] -- EControlThread: message received: [A (ShowStatus) -- A close -1 S []].
181203-16:59:27 [INFO] -- A: A close -1 S []
181203-16:59:33 [INFO] -- EControlThread: message received: [B (ShowStatus) -- B close -1 S []].
181203-16:59:33 [INFO] -- B: B close -1 S []
181203-16:59:33 [INFO] -- EControlThread: message received: [B (ShowStatus) -- B close -1 S []].
181203-16:59:33 [INFO] -- B: B close -1 S []
181203-16:59:33 [INFO] -- EControlThread: message received: [A (ShowStatus) -- A close -1 S []].
181203-16:59:33 [INFO] -- A: A close -1 S []
181203-16:59:33 [INFO] -- EControlThread: message received: [A (ShowStatus) -- A close -1 S []].
181203-16:59:33 [INFO] -- A: A close -1 S []
181203-16:59:39 [INFO] -- EControlThread: message received: [B (ShowStatus) -- B close -1 S []].
181203-16:59:39 [INFO] -- B: B close -1 S []
181203-16:59:39 [INFO] -- EControlThread: message received: [B (ShowStatus) -- B close -1 S []].
181203-16:59:39 [INFO] -- B: B close -1 S []
181203-16:59:39 [INFO] -- EControlThread: message received: [A (ShowStatus) -- A close -1 S []].
181203-16:59:39 [INFO] -- A: A close -1 S []
181203-16:59:39 [INFO] -- EControlThread: message received: [A (ShowStatus) -- A close -1 S []].
181203-16:59:39 [INFO] -- A: A close -1 S []
181203-16:59:45 [INFO] -- EControlThread: message received: [B (ShowStatus) -- B close -1 S []].
181203-16:59:45 [INFO] -- B: B close -1 S []
181203-16:59:45 [INFO] -- EControlThread: message received: [B (ShowStatus) -- B close -1 S []].
181203-16:59:45 [INFO] -- B: B close -1 S []
181203-16:59:45 [INFO] -- EControlThread: message received: [A (ShowStatus) -- A close -1 S []].
181203-16:59:45 [INFO] -- A: A close -1 S []
181203-16:59:45 [INFO] -- EControlThread: message received: [A (ShowStatus) -- A close -1 S []].
181203-16:59:45 [INFO] -- A: A close -1 S []
181203-16:59:51 [INFO] -- EControlThread: message received: [B (ShowStatus) -- B close -1 S []].
181203-16:59:51 [INFO] -- B: B close -1 S []
181203-16:59:51 [INFO] -- EControlThread: message received: [B (ShowStatus) -- B close -1 S []].
181203-16:59:51 [INFO] -- B: B close -1 S []
181203-16:59:51 [INFO] -- EControlThread: message received: [A (ShowStatus) -- A close -1 S []].
181203-16:59:51 [INFO] -- A: A close -1 S []
181203-16:59:51 [INFO] -- EControlThread: message received: [A (ShowStatus) -- A close -1 S []].
181203-16:59:51 [INFO] -- A: A close -1 S []
181203-16:59:57 [INFO] -- EControlThread: message received: [B (ShowStatus) -- B close -1 S []].
181203-16:59:57 [INFO] -- B: B close -1 S []
181203-16:59:57 [INFO] -- EControlThread: message received: [B (ShowStatus) -- B close -1 S []].
181203-16:59:57 [INFO] -- B: B close -1 S []
181203-16:59:57 [INFO] -- EControlThread: message received: [A (ShowStatus) -- A close -1 S []].
181203-16:59:57 [INFO] -- A: A close -1 S []
181203-16:59:57 [INFO] -- EControlThread: message received: [A (ShowStatus) -- A close -1 S []].
181203-16:59:57 [INFO] -- A: A close -1 S []
181203-17:00:03 [INFO] -- EControlThread: message received: [B (ShowStatus) -- B close -1 S []].
181203-17:00:03 [INFO] -- B: B close -1 S []
181203-17:00:03 [INFO] -- EControlThread: message received: [B (ShowStatus) -- B close -1 S []].
181203-17:00:03 [INFO] -- B: B close -1 S []
181203-17:00:03 [INFO] -- EControlThread: message received: [A (ShowStatus) -- A close -1 S []].
181203-17:00:03 [INFO] -- A: A close -1 S []
181203-17:00:03 [INFO] -- EControlThread: message received: [A (ShowStatus) -- A close -1 S []].
181203-17:00:03 [INFO] -- A: A close -1 S []
181203-17:00:09 [INFO] -- EControlThread: message received: [B (ShowStatus) -- B close -1 S []].
181203-17:00:09 [INFO] -- B: B close -1 S []
181203-17:00:09 [INFO] -- EControlThread: message received: [B (ShowStatus) -- B close -1 S []].
181203-17:00:09 [INFO] -- B: B close -1 S []
181203-17:00:09 [INFO] -- EControlThread: message received: [A (ShowStatus) -- A close -1 S []].
181203-17:00:09 [INFO] -- A: A close -1 S []
181203-17:00:09 [INFO] -- EControlThread: message received: [A (ShowStatus) -- A close -1 S []].
181203-17:00:09 [INFO] -- A: A close -1 S []
181203-17:00:15 [INFO] -- EControlThread: message received: [B (ShowStatus) -- B close -1 S []].
181203-17:00:15 [INFO] -- B: B close -1 S []
181203-17:00:15 [INFO] -- EControlThread: message received: [B (ShowStatus) -- B close -1 S []].
181203-17:00:15 [INFO] -- B: B close -1 S []
181203-17:00:15 [INFO] -- EControlThread: message received: [A (ShowStatus) -- A close -1 S []].
181203-17:00:15 [INFO] -- A: A close -1 S []
181203-17:00:15 [INFO] -- EControlThread: message received: [A (ShowStatus) -- A close -1 S []].
181203-17:00:15 [INFO] -- A: A close -1 S []
181203-17:00:21 [INFO] -- EControlThread: message received: [B (ShowStatus) -- B close -1 S []].
181203-17:00:21 [INFO] -- B: B close -1 S []
181203-17:00:21 [INFO] -- EControlThread: message received: [B (ShowStatus) -- B close -1 S []].
181203-17:00:21 [INFO] -- B: B close -1 S []
181203-17:00:21 [INFO] -- EControlThread: message received: [A (ShowStatus) -- A close -1 S []].
181203-17:00:21 [INFO] -- A: A close -1 S []
181203-17:00:21 [INFO] -- EControlThread: message received: [A (ShowStatus) -- A close -1 S []].
181203-17:00:21 [INFO] -- A: A close -1 S []
181203-17:00:27 [INFO] -- EControlThread: message received: [B (ShowStatus) -- B close -1 S []].
181203-17:00:27 [INFO] -- B: B close -1 S []
181203-17:00:27 [INFO] -- EControlThread: message received: [B (ShowStatus) -- B close -1 S []].
181203-17:00:27 [INFO] -- B: B close -1 S []
181203-17:00:27 [INFO] -- EControlThread: message received: [A (ShowStatus) -- A close -1 S []].
181203-17:00:27 [INFO] -- A: A close -1 S []
181203-17:00:27 [INFO] -- EControlThread: message received: [A (ShowStatus) -- A close -1 S []].
181203-17:00:27 [INFO] -- A: A close -1 S []
181203-17:00:33 [INFO] -- EControlThread: message received: [B (ShowStatus) -- B close -1 S []].
181203-17:00:33 [INFO] -- B: B close -1 S []
181203-17:00:33 [INFO] -- EControlThread: message received: [B (ShowStatus) -- B close -1 S []].
181203-17:00:33 [INFO] -- B: B close -1 S []
181203-17:00:33 [INFO] -- EControlThread: message received: [A (ShowStatus) -- A close -1 S []].
181203-17:00:33 [INFO] -- A: A close -1 S []
181203-17:00:33 [INFO] -- EControlThread: message received: [A (ShowStatus) -- A close -1 S []].
181203-17:00:33 [INFO] -- A: A close -1 S []
181203-17:00:39 [INFO] -- EControlThread: message received: [B (ShowStatus) -- B close -1 S []].
181203-17:00:39 [INFO] -- B: B close -1 S []
181203-17:00:39 [INFO] -- EControlThread: message received: [B (ShowStatus) -- B close -1 S []].
181203-17:00:39 [INFO] -- B: B close -1 S []
181203-17:00:39 [INFO] -- EControlThread: message received: [A (ShowStatus) -- A close -1 S []].
181203-17:00:39 [INFO] -- A: A close -1 S []
181203-17:00:39 [INFO] -- EControlThread: message received: [A (ShowStatus) -- A close -1 S []].
181203-17:00:39 [INFO] -- A: A close -1 S []
181203-17:00:45 [INFO] -- EControlThread: message received: [B (ShowStatus) -- B close -1 S []].
181203-17:00:45 [INFO] -- B: B close -1 S []
181203-17:00:45 [INFO] -- EControlThread: message received: [B (ShowStatus) -- B close -1 S []].
181203-17:00:45 [INFO] -- B: B close -1 S []
181203-17:00:45 [INFO] -- EControlThread: message received: [A (ShowStatus) -- A close -1 S []].
181203-17:00:45 [INFO] -- A: A close -1 S []
181203-17:00:45 [INFO] -- EControlThread: message received: [A (ShowStatus) -- A close -1 S []].
181203-17:00:45 [INFO] -- A: A close -1 S []
181203-17:00:51 [INFO] -- EControlThread: message received: [B (ShowStatus) -- B close -1 S []].
181203-17:00:51 [INFO] -- B: B close -1 S []
181203-17:00:51 [INFO] -- EControlThread: message received: [B (ShowStatus) -- B close -1 S []].
181203-17:00:51 [INFO] -- B: B close -1 S []
181203-17:00:51 [INFO] -- EControlThread: message received: [A (ShowStatus) -- A close -1 S []].
181203-17:00:51 [INFO] -- A: A close -1 S []
181203-17:00:51 [INFO] -- EControlThread: message received: [A (ShowStatus) -- A close -1 S []].
181203-17:00:51 [INFO] -- A: A close -1 S []
181203-17:00:57 [INFO] -- EControlThread: message received: [B (ShowStatus) -- B close -1 S []].
181203-17:00:57 [INFO] -- B: B close -1 S []
181203-17:00:57 [INFO] -- EControlThread: message received: [B (ShowStatus) -- B close -1 S []].
181203-17:00:57 [INFO] -- B: B close -1 S []
181203-17:00:57 [INFO] -- EControlThread: message received: [A (ShowStatus) -- A close -1 S []].
181203-17:00:57 [INFO] -- A: A close -1 S []
181203-17:00:57 [INFO] -- EControlThread: message received: [A (ShowStatus) -- A close -1 S []].
181203-17:00:57 [INFO] -- A: A close -1 S []
181203-17:01:03 [INFO] -- EControlThread: message received: [B (ShowStatus) -- B close -1 S []].
181203-17:01:03 [INFO] -- B: B close -1 S []
181203-17:01:03 [INFO] -- EControlThread: message received: [B (ShowStatus) -- B close -1 S []].
181203-17:01:03 [INFO] -- B: B close -1 S []
181203-17:01:03 [INFO] -- EControlThread: message received: [A (ShowStatus) -- A close -1 S []].
181203-17:01:03 [INFO] -- A: A close -1 S []
181203-17:01:03 [INFO] -- EControlThread: message received: [A (ShowStatus) -- A close -1 S []].
181203-17:01:03 [INFO] -- A: A close -1 S []
181203-17:01:09 [INFO] -- EControlThread: message received: [B (ShowStatus) -- B close -1 S []].
181203-17:01:09 [INFO] -- B: B close -1 S []
181203-17:01:09 [INFO] -- EControlThread: message received: [B (ShowStatus) -- B close -1 S []].
181203-17:01:09 [INFO] -- B: B close -1 S []
181203-17:01:09 [INFO] -- EControlThread: message received: [A (ShowStatus) -- A close -1 S []].
181203-17:01:09 [INFO] -- A: A close -1 S []
181203-17:01:09 [INFO] -- EControlThread: message received: [A (ShowStatus) -- A close -1 S []].
181203-17:01:09 [INFO] -- A: A close -1 S []
181203-17:01:15 [INFO] -- EControlThread: message received: [B (ShowStatus) -- B close -1 S []].
181203-17:01:15 [INFO] -- B: B close -1 S []
181203-17:01:15 [INFO] -- EControlThread: message received: [B (ShowStatus) -- B close -1 S []].
181203-17:01:15 [INFO] -- B: B close -1 S []
181203-17:01:15 [INFO] -- EControlThread: message received: [A (ShowStatus) -- A close -1 S []].
181203-17:01:15 [INFO] -- A: A close -1 S []
181203-17:01:15 [INFO] -- EControlThread: message received: [A (ShowStatus) -- A close -1 S []].
181203-17:01:15 [INFO] -- A: A close -1 S []
181203-17:01:21 [INFO] -- EControlThread: message received: [B (ShowStatus) -- B close -1 S []].
181203-17:01:21 [INFO] -- B: B close -1 S []
181203-17:01:21 [INFO] -- EControlThread: message received: [B (ShowStatus) -- B close -1 S []].
181203-17:01:21 [INFO] -- B: B close -1 S []
181203-17:01:21 [INFO] -- EControlThread: message received: [A (ShowStatus) -- A close -1 S []].
181203-17:01:21 [INFO] -- A: A close -1 S []
181203-17:01:21 [INFO] -- EControlThread: message received: [A (ShowStatus) -- A close -1 S []].
181203-17:01:21 [INFO] -- A: A close -1 S []
181203-17:01:27 [INFO] -- EControlThread: message received: [B (ShowStatus) -- B close -1 S []].
181203-17:01:27 [INFO] -- B: B close -1 S []
181203-17:01:27 [INFO] -- EControlThread: message received: [B (ShowStatus) -- B close -1 S []].
181203-17:01:27 [INFO] -- B: B close -1 S []
181203-17:01:27 [INFO] -- EControlThread: message received: [A (ShowStatus) -- A close -1 S []].
181203-17:01:27 [INFO] -- A: A close -1 S []
181203-17:01:27 [INFO] -- EControlThread: message received: [A (ShowStatus) -- A close -1 S []].
181203-17:01:27 [INFO] -- A: A close -1 S []
181203-17:01:33 [INFO] -- EControlThread: message received: [B (ShowStatus) -- B close -1 S []].
181203-17:01:33 [INFO] -- B: B close -1 S []
181203-17:01:33 [INFO] -- EControlThread: message received: [B (ShowStatus) -- B close -1 S []].
181203-17:01:33 [INFO] -- B: B close -1 S []
181203-17:01:33 [INFO] -- EControlThread: message received: [A (ShowStatus) -- A close -1 S []].
181203-17:01:33 [INFO] -- A: A close -1 S []
181203-17:01:33 [INFO] -- EControlThread: message received: [A (ShowStatus) -- A close -1 S []].
181203-17:01:33 [INFO] -- A: A close -1 S []
181203-17:01:39 [INFO] -- EControlThread: message received: [B (ShowStatus) -- B close -1 S []].
181203-17:01:39 [INFO] -- B: B close -1 S []
181203-17:01:39 [INFO] -- EControlThread: message received: [B (ShowStatus) -- B close -1 S []].
181203-17:01:39 [INFO] -- B: B close -1 S []
181203-17:01:39 [INFO] -- EControlThread: message received: [A (ShowStatus) -- A close -1 S []].
181203-17:01:39 [INFO] -- A: A close -1 S []
181203-17:01:39 [INFO] -- EControlThread: message received: [A (ShowStatus) -- A close -1 S []].
181203-17:01:39 [INFO] -- A: A close -1 S []
181203-17:01:45 [INFO] -- EControlThread: message received: [B (ShowStatus) -- B close -1 S []].
181203-17:01:45 [INFO] -- B: B close -1 S []
181203-17:01:45 [INFO] -- EControlThread: message received: [B (ShowStatus) -- B close -1 S []].
181203-17:01:45 [INFO] -- B: B close -1 S []
181203-17:01:45 [INFO] -- EControlThread: message received: [A (ShowStatus) -- A close -1 S []].
181203-17:01:45 [INFO] -- A: A close -1 S []
181203-17:01:45 [INFO] -- EControlThread: message received: [A (ShowStatus) -- A close -1 S []].
181203-17:01:45 [INFO] -- A: A close -1 S []
181203-17:01:51 [INFO] -- EControlThread: message received: [B (ShowStatus) -- B close -1 S []].
181203-17:01:51 [INFO] -- B: B close -1 S []
181203-17:01:51 [INFO] -- EControlThread: message received: [B (ShowStatus) -- B close -1 S []].
181203-17:01:51 [INFO] -- B: B close -1 S []
181203-17:01:51 [INFO] -- EControlThread: message received: [A (ShowStatus) -- A close -1 S []].
181203-17:01:51 [INFO] -- A: A close -1 S []
181203-17:01:51 [INFO] -- EControlThread: message received: [A (ShowStatus) -- A close -1 S []].
181203-17:01:51 [INFO] -- A: A close -1 S []
181203-17:01:57 [INFO] -- EControlThread: message received: [B (ShowStatus) -- B close -1 S []].
181203-17:01:57 [INFO] -- B: B close -1 S []
181203-17:01:57 [INFO] -- EControlThread: message received: [B (ShowStatus) -- B close -1 S []].
181203-17:01:57 [INFO] -- B: B close -1 S []
181203-17:01:57 [INFO] -- EControlThread: message received: [A (ShowStatus) -- A close -1 S []].
181203-17:01:57 [INFO] -- A: A close -1 S []
181203-17:01:57 [INFO] -- EControlThread: message received: [A (ShowStatus) -- A close -1 S []].
181203-17:01:57 [INFO] -- A: A close -1 S []
181203-17:02:03 [INFO] -- EControlThread: message received: [B (ShowStatus) -- B close -1 S []].
181203-17:02:03 [INFO] -- B: B close -1 S []
181203-17:02:03 [INFO] -- EControlThread: message received: [B (ShowStatus) -- B close -1 S []].
181203-17:02:03 [INFO] -- B: B close -1 S []
181203-17:02:03 [INFO] -- EControlThread: message received: [A (ShowStatus) -- A close -1 S []].
181203-17:02:03 [INFO] -- A: A close -1 S []
181203-17:02:03 [INFO] -- EControlThread: message received: [A (ShowStatus) -- A close -1 S []].
181203-17:02:03 [INFO] -- A: A close -1 S []
181203-17:02:09 [INFO] -- EControlThread: message received: [B (ShowStatus) -- B close -1 S []].
181203-17:02:09 [INFO] -- B: B close -1 S []
181203-17:02:09 [INFO] -- EControlThread: message received: [B (ShowStatus) -- B close -1 S []].
181203-17:02:09 [INFO] -- B: B close -1 S []
181203-17:02:09 [INFO] -- EControlThread: message received: [A (ShowStatus) -- A close -1 S []].
181203-17:02:09 [INFO] -- A: A close -1 S []
181203-17:02:09 [INFO] -- EControlThread: message received: [A (ShowStatus) -- A close -1 S []].
181203-17:02:09 [INFO] -- A: A close -1 S []
181203-17:02:15 [INFO] -- EControlThread: message received: [B (ShowStatus) -- B close -1 S []].
181203-17:02:15 [INFO] -- B: B close -1 S []
181203-17:02:15 [INFO] -- EControlThread: message received: [B (ShowStatus) -- B close -1 S []].
181203-17:02:15 [INFO] -- B: B close -1 S []
181203-17:02:15 [INFO] -- EControlThread: message received: [A (ShowStatus) -- A close -1 S []].
181203-17:02:15 [INFO] -- A: A close -1 S []
181203-17:02:15 [INFO] -- EControlThread: message received: [A (ShowStatus) -- A close -1 S []].
181203-17:02:15 [INFO] -- A: A close -1 S []
181203-17:02:21 [INFO] -- EControlThread: message received: [B (ShowStatus) -- B close -1 S []].
181203-17:02:21 [INFO] -- B: B close -1 S []
181203-17:02:21 [INFO] -- EControlThread: message received: [B (ShowStatus) -- B close -1 S []].
181203-17:02:21 [INFO] -- B: B close -1 S []
181203-17:02:21 [INFO] -- EControlThread: message received: [A (ShowStatus) -- A close -1 S []].
181203-17:02:21 [INFO] -- A: A close -1 S []
181203-17:02:21 [INFO] -- EControlThread: message received: [A (ShowStatus) -- A close -1 S []].
181203-17:02:21 [INFO] -- A: A close -1 S []
181203-17:02:27 [INFO] -- EControlThread: message received: [B (ShowStatus) -- B close -1 S []].
181203-17:02:27 [INFO] -- B: B close -1 S []
181203-17:02:27 [INFO] -- EControlThread: message received: [B (ShowStatus) -- B close -1 S []].
181203-17:02:27 [INFO] -- B: B close -1 S []
181203-17:02:27 [INFO] -- EControlThread: message received: [A (ShowStatus) -- A close -1 S []].
181203-17:02:27 [INFO] -- A: A close -1 S []
181203-17:02:27 [INFO] -- EControlThread: message received: [A (ShowStatus) -- A close -1 S []].
181203-17:02:27 [INFO] -- A: A close -1 S []
181203-17:02:33 [INFO] -- EControlThread: message received: [B (ShowStatus) -- B close -1 S []].
181203-17:02:33 [INFO] -- B: B close -1 S []
181203-17:02:33 [INFO] -- EControlThread: message received: [B (ShowStatus) -- B close -1 S []].
181203-17:02:33 [INFO] -- B: B close -1 S []
181203-17:02:33 [INFO] -- EControlThread: message received: [A (ShowStatus) -- A close -1 S []].
181203-17:02:33 [INFO] -- A: A close -1 S []
181203-17:02:33 [INFO] -- EControlThread: message received: [A (ShowStatus) -- A close -1 S []].
181203-17:02:33 [INFO] -- A: A close -1 S []
181203-17:02:39 [INFO] -- EControlThread: message received: [B (ShowStatus) -- B close -1 S []].
181203-17:02:39 [INFO] -- B: B close -1 S []
181203-17:02:39 [INFO] -- EControlThread: message received: [B (ShowStatus) -- B close -1 S []].
181203-17:02:39 [INFO] -- B: B close -1 S []
181203-17:02:39 [INFO] -- EControlThread: message received: [A (ShowStatus) -- A close -1 S []].
181203-17:02:39 [INFO] -- A: A close -1 S []
181203-17:02:39 [INFO] -- EControlThread: message received: [A (ShowStatus) -- A close -1 S []].
181203-17:02:39 [INFO] -- A: A close -1 S []
181203-17:02:45 [INFO] -- EControlThread: message received: [B (ShowStatus) -- B close -1 S []].
181203-17:02:45 [INFO] -- B: B close -1 S []
181203-17:02:45 [INFO] -- EControlThread: message received: [B (ShowStatus) -- B close -1 S []].
181203-17:02:45 [INFO] -- B: B close -1 S []
181203-17:02:45 [INFO] -- EControlThread: message received: [A (ShowStatus) -- A close -1 S []].
181203-17:02:45 [INFO] -- A: A close -1 S []
181203-17:02:45 [INFO] -- EControlThread: message received: [A (ShowStatus) -- A close -1 S []].
181203-17:02:45 [INFO] -- A: A close -1 S []
181203-17:02:51 [INFO] -- EControlThread: message received: [B (ShowStatus) -- B close -1 S []].
181203-17:02:51 [INFO] -- B: B close -1 S []
181203-17:02:51 [INFO] -- EControlThread: message received: [B (ShowStatus) -- B close -1 S []].
181203-17:02:51 [INFO] -- B: B close -1 S []
181203-17:02:51 [INFO] -- EControlThread: message received: [A (ShowStatus) -- A close -1 S []].
181203-17:02:51 [INFO] -- A: A close -1 S []
181203-17:02:51 [INFO] -- EControlThread: message received: [A (ShowStatus) -- A close -1 S []].
181203-17:02:51 [INFO] -- A: A close -1 S []
181203-17:02:57 [INFO] -- EControlThread: message received: [B (ShowStatus) -- B close -1 S []].
181203-17:02:57 [INFO] -- B: B close -1 S []
181203-17:02:57 [INFO] -- EControlThread: message received: [B (ShowStatus) -- B close -1 S []].
181203-17:02:57 [INFO] -- B: B close -1 S []
181203-17:02:57 [INFO] -- EControlThread: message received: [A (ShowStatus) -- A close -1 S []].
181203-17:02:57 [INFO] -- A: A close -1 S []
181203-17:02:57 [INFO] -- EControlThread: message received: [A (ShowStatus) -- A close -1 S []].
181203-17:02:57 [INFO] -- A: A close -1 S []
181203-17:03:03 [INFO] -- EControlThread: message received: [B (ShowStatus) -- B close -1 S []].
181203-17:03:03 [INFO] -- B: B close -1 S []
181203-17:03:03 [INFO] -- EControlThread: message received: [B (ShowStatus) -- B close -1 S []].
181203-17:03:03 [INFO] -- B: B close -1 S []
181203-17:03:03 [INFO] -- EControlThread: message received: [A (ShowStatus) -- A close -1 S []].
181203-17:03:03 [INFO] -- A: A close -1 S []
181203-17:03:03 [INFO] -- EControlThread: message received: [A (ShowStatus) -- A close -1 S []].
181203-17:03:03 [INFO] -- A: A close -1 S []
181203-17:03:09 [INFO] -- EControlThread: message received: [B (ShowStatus) -- B close -1 S []].
181203-17:03:09 [INFO] -- B: B close -1 S []
181203-17:03:09 [INFO] -- EControlThread: message received: [B (ShowStatus) -- B close -1 S []].
181203-17:03:09 [INFO] -- B: B close -1 S []
181203-17:03:09 [INFO] -- EControlThread: message received: [A (ShowStatus) -- A close -1 S []].
181203-17:03:09 [INFO] -- A: A close -1 S []
181203-17:03:09 [INFO] -- EControlThread: message received: [A (ShowStatus) -- A close -1 S []].
181203-17:03:09 [INFO] -- A: A close -1 S []
181203-17:03:15 [INFO] -- EControlThread: message received: [B (ShowStatus) -- B close -1 S []].
181203-17:03:15 [INFO] -- B: B close -1 S []
181203-17:03:15 [INFO] -- EControlThread: message received: [B (ShowStatus) -- B close -1 S []].
181203-17:03:15 [INFO] -- B: B close -1 S []
181203-17:03:15 [INFO] -- EControlThread: message received: [A (ShowStatus) -- A close -1 S []].
181203-17:03:15 [INFO] -- A: A close -1 S []
181203-17:03:15 [INFO] -- EControlThread: message received: [A (ShowStatus) -- A close -1 S []].
181203-17:03:15 [INFO] -- A: A close -1 S []
181203-17:03:21 [INFO] -- EControlThread: message received: [B (ShowStatus) -- B close -1 S []].
181203-17:03:21 [INFO] -- B: B close -1 S []
181203-17:03:21 [INFO] -- EControlThread: message received: [B (ShowStatus) -- B close -1 S []].
181203-17:03:21 [INFO] -- B: B close -1 S []
181203-17:03:21 [INFO] -- EControlThread: message received: [A (ShowStatus) -- A close -1 S []].
181203-17:03:21 [INFO] -- A: A close -1 S []
181203-17:03:21 [INFO] -- EControlThread: message received: [A (ShowStatus) -- A close -1 S []].
181203-17:03:21 [INFO] -- A: A close -1 S []
181203-17:03:27 [INFO] -- EControlThread: message received: [B (ShowStatus) -- B close -1 S []].
181203-17:03:27 [INFO] -- B: B close -1 S []
181203-17:03:27 [INFO] -- EControlThread: message received: [B (ShowStatus) -- B close -1 S []].
181203-17:03:27 [INFO] -- B: B close -1 S []
181203-17:03:27 [INFO] -- EControlThread: message received: [A (ShowStatus) -- A close -1 S []].
181203-17:03:27 [INFO] -- A: A close -1 S []
181203-17:03:27 [INFO] -- EControlThread: message received: [A (ShowStatus) -- A close -1 S []].
181203-17:03:27 [INFO] -- A: A close -1 S []
181203-17:03:33 [INFO] -- EControlThread: message received: [B (ShowStatus) -- B close -1 S []].
181203-17:03:33 [INFO] -- B: B close -1 S []
181203-17:03:33 [INFO] -- EControlThread: message received: [B (ShowStatus) -- B close -1 S []].
181203-17:03:33 [INFO] -- B: B close -1 S []
181203-17:03:33 [INFO] -- EControlThread: message received: [A (ShowStatus) -- A close -1 S []].
181203-17:03:33 [INFO] -- A: A close -1 S []
181203-17:03:33 [INFO] -- EControlThread: message received: [A (ShowStatus) -- A close -1 S []].
181203-17:03:33 [INFO] -- A: A close -1 S []
181203-17:03:39 [INFO] -- EControlThread: message received: [B (ShowStatus) -- B close -1 S []].
181203-17:03:39 [INFO] -- B: B close -1 S []
181203-17:03:39 [INFO] -- EControlThread: message received: [B (ShowStatus) -- B close -1 S []].
181203-17:03:39 [INFO] -- B: B close -1 S []
181203-17:03:39 [INFO] -- EControlThread: message received: [A (ShowStatus) -- A close -1 S []].
181203-17:03:39 [INFO] -- A: A close -1 S []
181203-17:03:39 [INFO] -- EControlThread: message received: [A (ShowStatus) -- A close -1 S []].
181203-17:03:39 [INFO] -- A: A close -1 S []
181203-17:03:45 [INFO] -- EControlThread: message received: [B (ShowStatus) -- B close -1 S []].
181203-17:03:45 [INFO] -- B: B close -1 S []
181203-17:03:45 [INFO] -- EControlThread: message received: [B (ShowStatus) -- B close -1 S []].
181203-17:03:45 [INFO] -- B: B close -1 S []
181203-17:03:45 [INFO] -- EControlThread: message received: [A (ShowStatus) -- A close -1 S []].
181203-17:03:45 [INFO] -- A: A close -1 S []
181203-17:03:45 [INFO] -- EControlThread: message received: [A (ShowStatus) -- A close -1 S []].
181203-17:03:45 [INFO] -- A: A close -1 S []
181203-17:03:51 [INFO] -- EControlThread: message received: [B (ShowStatus) -- B close -1 S []].
181203-17:03:51 [INFO] -- B: B close -1 S []
181203-17:03:51 [INFO] -- EControlThread: message received: [B (ShowStatus) -- B close -1 S []].
181203-17:03:51 [INFO] -- B: B close -1 S []
181203-17:03:51 [INFO] -- EControlThread: message received: [A (ShowStatus) -- A close -1 S []].
181203-17:03:51 [INFO] -- A: A close -1 S []
181203-17:03:51 [INFO] -- EControlThread: message received: [A (ShowStatus) -- A close -1 S []].
181203-17:03:51 [INFO] -- A: A close -1 S []
181203-17:03:57 [INFO] -- EControlThread: message received: [B (ShowStatus) -- B close -1 S []].
181203-17:03:57 [INFO] -- B: B close -1 S []
181203-17:03:57 [INFO] -- EControlThread: message received: [B (ShowStatus) -- B close -1 S []].
181203-17:03:57 [INFO] -- B: B close -1 S []
181203-17:03:57 [INFO] -- EControlThread: message received: [A (ShowStatus) -- A close -1 S []].
181203-17:03:57 [INFO] -- A: A close -1 S []
181203-17:03:57 [INFO] -- EControlThread: message received: [A (ShowStatus) -- A close -1 S []].
181203-17:03:57 [INFO] -- A: A close -1 S []
181203-17:04:03 [INFO] -- EControlThread: message received: [B (ShowStatus) -- B close -1 S []].
181203-17:04:03 [INFO] -- B: B close -1 S []
181203-17:04:03 [INFO] -- EControlThread: message received: [B (ShowStatus) -- B close -1 S []].
181203-17:04:03 [INFO] -- B: B close -1 S []
181203-17:04:03 [INFO] -- EControlThread: message received: [A (ShowStatus) -- A close -1 S []].
181203-17:04:03 [INFO] -- A: A close -1 S []
181203-17:04:03 [INFO] -- EControlThread: message received: [A (ShowStatus) -- A close -1 S []].
181203-17:04:03 [INFO] -- A: A close -1 S []
181203-17:04:09 [INFO] -- EControlThread: message received: [B (ShowStatus) -- B close -1 S []].
181203-17:04:09 [INFO] -- B: B close -1 S []
181203-17:04:09 [INFO] -- EControlThread: message received: [B (ShowStatus) -- B close -1 S []].
181203-17:04:09 [INFO] -- B: B close -1 S []
181203-17:04:09 [INFO] -- EControlThread: message received: [A (ShowStatus) -- A close -1 S []].
181203-17:04:09 [INFO] -- A: A close -1 S []
181203-17:04:09 [INFO] -- EControlThread: message received: [A (ShowStatus) -- A close -1 S []].
181203-17:04:09 [INFO] -- A: A close -1 S []
181203-17:04:15 [INFO] -- EControlThread: message received: [B (ShowStatus) -- B close -1 S []].
181203-17:04:15 [INFO] -- B: B close -1 S []
181203-17:04:15 [INFO] -- EControlThread: message received: [B (ShowStatus) -- B close -1 S []].
181203-17:04:15 [INFO] -- B: B close -1 S []
181203-17:04:15 [INFO] -- EControlThread: message received: [A (ShowStatus) -- A close -1 S []].
181203-17:04:15 [INFO] -- A: A close -1 S []
181203-17:04:15 [INFO] -- EControlThread: message received: [A (ShowStatus) -- A close -1 S []].
181203-17:04:15 [INFO] -- A: A close -1 S []
181203-17:04:21 [INFO] -- EControlThread: message received: [B (ShowStatus) -- B close -1 S []].
181203-17:04:21 [INFO] -- B: B close -1 S []
181203-17:04:21 [INFO] -- EControlThread: message received: [B (ShowStatus) -- B close -1 S []].
181203-17:04:21 [INFO] -- B: B close -1 S []
181203-17:04:21 [INFO] -- EControlThread: message received: [A (ShowStatus) -- A close -1 S []].
181203-17:04:21 [INFO] -- A: A close -1 S []
181203-17:04:21 [INFO] -- EControlThread: message received: [A (ShowStatus) -- A close -1 S []].
181203-17:04:21 [INFO] -- A: A close -1 S []
181203-17:04:27 [INFO] -- EControlThread: message received: [B (ShowStatus) -- B close -1 S []].
181203-17:04:27 [INFO] -- B: B close -1 S []
181203-17:04:27 [INFO] -- EControlThread: message received: [B (ShowStatus) -- B close -1 S []].
181203-17:04:27 [INFO] -- B: B close -1 S []
181203-17:04:27 [INFO] -- EControlThread: message received: [A (ShowStatus) -- A close -1 S []].
181203-17:04:27 [INFO] -- A: A close -1 S []
181203-17:04:27 [INFO] -- EControlThread: message received: [A (ShowStatus) -- A close -1 S []].
181203-17:04:27 [INFO] -- A: A close -1 S []
181203-17:04:33 [INFO] -- EControlThread: message received: [B (ShowStatus) -- B close -1 S []].
181203-17:04:33 [INFO] -- B: B close -1 S []
181203-17:04:33 [INFO] -- EControlThread: message received: [B (ShowStatus) -- B close -1 S []].
181203-17:04:33 [INFO] -- B: B close -1 S []
181203-17:04:33 [INFO] -- EControlThread: message received: [A (ShowStatus) -- A close -1 S []].
181203-17:04:33 [INFO] -- A: A close -1 S []
181203-17:04:33 [INFO] -- EControlThread: message received: [A (ShowStatus) -- A close -1 S []].
181203-17:04:33 [INFO] -- A: A close -1 S []
